strict digraph "" {
	subgraph cluster_OSA {
		graph [color=purple,
			label=OSA
		];
		Condition	[shape=octagon];
		"Trial Nmbr"	[shape=octagon];
		"R: Mean POP"	[shape=octagon];
		"R: Med POP"	[shape=octagon];
		"R: Pop Lift"	[shape=octagon];
		"R: UPD"	[shape=octagon];
		"R: Head Ratio"	[shape=octagon];
		"R: Mid Ratio"	[shape=octagon];
		"R: Tail Ratio"	[shape=octagon];
	}
	subgraph cluster_PC {
		graph [color=red,
			label=PC
		];
		"P: Mean POP"	[shape=ellipse];
		"P: Med POP"	[shape=ellipse];
		"P: Profile Size"	[shape=ellipse];
		"P: Head Ratio"	[shape=ellipse];
		"P: Mid Ratio"	[shape=ellipse];
		"P: Tail Ratio"	[shape=ellipse];
		Age	[shape=box];
		Gender	[shape=box];
		"Q: Musical Soph."	[shape=box];
		"Q: Musical Eng."	[shape=box];
	}
	subgraph cluster_SSA {
		graph [color=darkgreen,
			label=SSA
		];
		"Q: Perc. Popularity"	[shape=box];
		"Q: Familiarity"	[shape=box];
		"Q: Perc. Popularity" -> "Q: Familiarity"	[dir=both,
			label="r(100) = 0.51
p < .001
***"];
		"Q: Perc. Fairness"	[shape=box];
		"Q: Discovery"	[shape=box];
		"Q: Perc. Fairness" -> "Q: Discovery"	[dir=both,
			label="r(100) = 0.29
p = .004
**"];
		"Q: Perc. Rec. Quality"	[shape=box];
		"Q: Perc. Fairness" -> "Q: Perc. Rec. Quality"	[dir=both,
			label="r(100) = 0.50
p < .001
***"];
		"Q: Discovery" -> "Q: Familiarity"	[dir=both,
			label="r(100) = -0.35
p < .001
***"];
		"Q: Discovery" -> "Q: Perc. Rec. Quality"	[dir=both,
			label="r(100) = 0.66
p < .001
***"];
	}
	subgraph cluster_EXP {
		graph [color=orange,
			label=EXP
		];
		"Q: Rec. Satisfaction"	[shape=box];
		"Q: Choice Satisfaction"	[shape=box];
		"Q: Perc. System Effectiveness"	[shape=box];
	}
	subgraph cluster_BI {
		graph [color=pink,
			label=BI
		];
		"Q: Openness to Sim. Rec."	[shape=box];
		"Q: Use Intention"	[shape=box];
		"Q: Choice Listening Intention"	[shape=box];
	}
	subgraph cluster_INT {
		graph [color=blue,
			label=INT
		];
		"Time Spent"	[shape=ellipse];
		"C: Mean POP"	[shape=ellipse];
		"C: Med POP"	[shape=ellipse];
		"C: Pop Lift"	[shape=ellipse];
		"C: UPD"	[shape=ellipse];
		"C: Head Ratio"	[shape=ellipse];
		"C: Mid Ratio"	[shape=ellipse];
		"C: Tail Ratio"	[shape=ellipse];
	}
}
