strict digraph "" {
	subgraph cluster_EXP {
		graph [color=orange,
			label=EXP
		];
		"Q: Rec. Satisfaction"	[shape=box];
		"Q: Choice Satisfaction"	[shape=box];
		"Q: Perc. System Effectiveness"	[shape=box];
	}
	subgraph cluster_PC {
		graph [color=red,
			label=PC
		];
		"P: Mean POP"	[shape=ellipse];
		"P: Med POP"	[shape=ellipse];
		"P: Profile Size"	[shape=ellipse];
		"P: Head Ratio"	[shape=ellipse];
		"P: Mid Ratio"	[shape=ellipse];
		"P: Tail Ratio"	[shape=ellipse];
		Age	[shape=box];
		Gender	[shape=box];
		"Q: Musical Soph."	[shape=box];
		"Q: Musical Eng."	[shape=box];
	}
	subgraph cluster_INT {
		graph [color=blue,
			label=INT
		];
		"Time Spent"	[shape=ellipse];
		"C: Mean POP"	[shape=ellipse];
		"C: Med POP"	[shape=ellipse];
		"C: Pop Lift"	[shape=ellipse];
		"C: UPD"	[shape=ellipse];
		"C: UPD" -> "Time Spent"	[label="r(100) = 0.20
p = .048
*"];
		"C: Head Ratio"	[shape=ellipse];
		"C: Mid Ratio"	[shape=ellipse];
		"C: Mid Ratio" -> "Time Spent"	[label="r(100) = -0.21
p = .030
*"];
		"C: Tail Ratio"	[shape=ellipse];
		"C: Tail Ratio" -> "Time Spent"	[label="r(100) = 0.22
p = .026
*"];
	}
	subgraph cluster_BI {
		graph [color=pink,
			label=BI
		];
		"Q: Openness to Sim. Rec."	[shape=box];
		"Q: Use Intention"	[shape=box];
		"Q: Choice Listening Intention"	[shape=box];
	}
	subgraph cluster_SSA {
		graph [color=darkgreen,
			label=SSA
		];
		"Q: Perc. Popularity"	[shape=box];
		"Q: Perc. Fairness"	[shape=box];
		"Q: Discovery"	[shape=box];
		"Q: Familiarity"	[shape=box];
		"Q: Perc. Rec. Quality"	[shape=box];
	}
	subgraph cluster_OSA {
		graph [color=purple,
			label=OSA
		];
		Condition	[shape=octagon];
		"Trial Nmbr"	[shape=octagon];
		"R: Mean POP"	[shape=octagon];
		"R: Med POP"	[shape=octagon];
		"R: Pop Lift"	[shape=octagon];
		"R: UPD"	[shape=octagon];
		"R: Head Ratio"	[shape=octagon];
		"R: Mid Ratio"	[shape=octagon];
		"R: Tail Ratio"	[shape=octagon];
	}
	Condition -> "C: Mean POP"	[label="F(2,100) = 42.29
p < .001
η²: 0.19
***"];
	Condition -> "C: Med POP"	[label="F(2,100) = 51.36
p < .001
η²: 0.35
***"];
	Condition -> "C: Pop Lift"	[label="F(2,100) = 30.77
p < .001
η²: 0.25
***"];
	Condition -> "C: UPD"	[label="F(2,100) = 13.76
p < .001
η²: 0.24
***"];
	Condition -> "C: Head Ratio"	[label="F(2,100) = 17.21
p < .001
η²: 0.20
***"];
	Condition -> "C: Mid Ratio"	[label="F(2,100) = 83.90
p < .001
η²: 0.62
***"];
	Condition -> "C: Tail Ratio"	[label="F(2,100) = 160.06
p < .001
η²: 0.71
***"];
	"Trial Nmbr" -> "C: Med POP"	[label="F(2,100) = 4.61
p = .013
η²: 0.07
*"];
	"Trial Nmbr" -> "C: Pop Lift"	[label="F(2,100) = 3.84
p = .027
η²: 0.05
*"];
	"C: Pop Lift" -> "Q: Rec. Satisfaction"	[dir=both,
		label="r(100) = -0.27
p = .006
**"];
	"C: Pop Lift" -> "Q: Choice Satisfaction"	[dir=both,
		label="r(100) = -0.30
p = .002
**"];
	"C: Pop Lift" -> "Q: Perc. System Effectiveness"	[dir=both,
		label="r(100) = -0.21
p = .036
*"];
	"C: Pop Lift" -> "Q: Openness to Sim. Rec."	[label="r(100) = -0.30
p = .002
**"];
	"C: Pop Lift" -> "Q: Choice Listening Intention"	[label="r(100) = -0.34
p < .001
***"];
	"Q: Musical Soph." -> "C: Med POP"	[label="r(100) = -0.20
p = .049
*"];
	"Q: Musical Soph." -> "C: Head Ratio"	[label="r(100) = -0.24
p = .014
*"];
	"Q: Musical Eng." -> "Time Spent"	[label="r(100) = -0.22
p = .023
*"];
	"Q: Musical Eng." -> "C: Mean POP"	[label="r(100) = -0.20
p = .048
*"];
	"Q: Musical Eng." -> "C: Med POP"	[label="r(100) = -0.31
p = .001
**"];
	"Q: Musical Eng." -> "C: Head Ratio"	[label="r(100) = -0.30
p = .002
**"];
	"Q: Perc. Popularity" -> "Time Spent"	[label="r(100) = -0.22
p = .023
*"];
	"Q: Perc. Popularity" -> "C: Mid Ratio"	[label="r(100) = 0.30
p = .003
**"];
	"Q: Perc. Popularity" -> "C: Tail Ratio"	[label="r(100) = -0.33
p < .001
***"];
	"Q: Discovery" -> "C: Pop Lift"	[label="r(100) = -0.26
p = .007
**"];
	"Q: Familiarity" -> "Time Spent"	[label="r(100) = -0.26
p = .007
**"];
	"Q: Familiarity" -> "C: Med POP"	[label="r(100) = 0.24
p = .016
*"];
	"Q: Familiarity" -> "C: Mid Ratio"	[label="r(100) = 0.27
p = .006
**"];
	"Q: Familiarity" -> "C: Tail Ratio"	[label="r(100) = -0.32
p = .001
**"];
	"Q: Perc. Rec. Quality" -> "C: Pop Lift"	[label="r(100) = -0.30
p = .002
**"];
}
