factor1,factor2,statistic,p,effect_size,p<.05,Statistic_symbol
condition,time_spent,2.4717648437127964,0.09222055378434484,0.04861801613821737,o,"F(2,100)"
condition,choice_mean_interactions,42.28784218984312,1.5102191154723349e-12,0.19315119410144596,***,"F(2,100)"
condition,choice_median_interactions,51.36053281404949,3.5347821443900384e-14,0.3508063038802477,***,"F(2,100)"
condition,choice_popularity_lift,30.771230565212804,3.6169432932209873e-10,0.24941281016551825,***,"F(2,100)"
condition,choice_jensen_shannon,13.758978797318731,1.0125452274612386e-05,0.23539158640302868,***,"F(2,100)"
condition,choice_head_ratio,17.212962962962962,9.639111426467977e-07,0.1970845481049563,***,"F(2,100)"
condition,choice_mid_ratio,83.89611562782297,7.474073634345144e-19,0.6159851165505418,***,"F(2,100)"
condition,choice_tail_ratio,160.05763567522095,4.8226924851906624e-26,0.7119962945808246,***,"F(2,100)"
post_num,time_spent,0.47839377956382084,0.6219103385072067,0.009969968585456535,o,"F(2,100)"
post_num,choice_mean_interactions,3.0480517656606225,0.05418270475023468,0.029076843756579485,o,"F(2,100)"
post_num,choice_median_interactions,4.60614118208767,0.013409745478943559,0.07057577496426262,*,"F(2,100)"
post_num,choice_popularity_lift,3.83508307160735,0.026565955834687398,0.05381604907799279,*,"F(2,100)"
post_num,choice_jensen_shannon,0.7268845042530029,0.487241843069247,0.017240860479431498,o,"F(2,100)"
post_num,choice_head_ratio,1.7071999999999998,0.18928401007854348,0.028279883381924192,o,"F(2,100)"
post_num,choice_mid_ratio,1.352004247411736,0.2657916602171984,0.03377959362346338,o,"F(2,100)"
post_num,choice_tail_ratio,2.210465740811784,0.11770410703470653,0.053913849004168575,o,"F(2,100)"
time_spent,Q_RecommendationSatisfaction,0.3514215209652675,0.26763857808138397,0.11078667034865233,o,r(100)
time_spent,Q_ChoiceSatisfaction,0.5335742501891245,0.09235987511126241,0.16753434809884946,o,r(100)
time_spent,Q_PerceivedSystemEffectiveness,0.3021645272446472,0.3405178732475926,0.09533495548877938,o,r(100)
time_spent,Q_OpennessSimilarRecommendations,0.2813487928325533,0.3748195218032313,0.088794408913802,o,r(100)
time_spent,Q_UseIntention,0.5339359201546474,0.09213927980623451,0.16764628907583073,o,r(100)
time_spent,Q_ChoiceListeningIntention,0.38076542158988025,0.2297209587355688,0.1199729645204135,o,r(100)
choice_mean_interactions,time_spent,-0.2577199283603321,0.41624817121333074,-0.0813629828809892,o,r(100)
choice_mean_interactions,Q_RecommendationSatisfaction,-0.3553345164464787,0.26234744567753276,-0.11201250923369149,o,r(100)
choice_mean_interactions,Q_ChoiceSatisfaction,-0.12836380449304002,0.6855447058535448,-0.04057548136579831,o,r(100)
choice_mean_interactions,Q_PerceivedSystemEffectiveness,-0.06210104126362125,0.8446959356016231,-0.01963618026232371,o,r(100)
choice_mean_interactions,Q_OpennessSimilarRecommendations,-0.5963297768824345,0.05996969477479617,-0.18690706650429828,o,r(100)
choice_mean_interactions,Q_UseIntention,-0.16032432299716237,0.6130501672653776,-0.05066643393613594,o,r(100)
choice_mean_interactions,Q_ChoiceListeningIntention,-0.20574689890707085,0.516335376116616,-0.06499406297877397,o,r(100)
choice_median_interactions,time_spent,-0.22892764033820662,0.4702172598708189,-0.07229848907525736,o,r(100)
choice_median_interactions,Q_RecommendationSatisfaction,-0.0761772121603225,0.8101038559928827,-0.02408585513346897,o,r(100)
choice_median_interactions,Q_ChoiceSatisfaction,-0.03724898488975167,0.9064658014579575,-0.011778754699306447,o,r(100)
choice_median_interactions,Q_PerceivedSystemEffectiveness,0.10542314336049069,0.7394778176816652,0.03332846347901738,o,r(100)
choice_median_interactions,Q_OpennessSimilarRecommendations,-0.30853326229098366,0.3304380783575397,-0.09733486989742285,o,r(100)
choice_median_interactions,Q_UseIntention,-0.026173264984466524,0.9342010292235151,-0.008276571369670957,o,r(100)
choice_median_interactions,Q_ChoiceListeningIntention,-0.0759512509798859,0.8106564260348922,-0.024014430937194343,o,r(100)
choice_popularity_lift,time_spent,-0.4772373011585122,0.13222649811776457,-0.1500588490879201,o,r(100)
choice_popularity_lift,Q_RecommendationSatisfaction,-0.870391163761326,0.006046267303698694,-0.27007918246497004,**,r(100)
choice_popularity_lift,Q_ChoiceSatisfaction,-0.9750882913609473,0.0021030264678518853,-0.30110965196162903,**,r(100)
choice_popularity_lift,Q_PerceivedSystemEffectiveness,-0.663611700079318,0.03632956289185975,-0.20755492846164975,*,r(100)
choice_popularity_lift,Q_OpennessSimilarRecommendations,-0.9839013797477638,0.0019153192530177617,-0.3037001948873669,**,r(100)
choice_popularity_lift,Q_UseIntention,-0.5434420851368775,0.08649138246700606,-0.17058737539095117,o,r(100)
choice_popularity_lift,Q_ChoiceListeningIntention,-1.0994540834348558,0.0005260441968536722,-0.33733445557288216,***,r(100)
choice_jensen_shannon,time_spent,0.6270013796245196,0.047956414014106795,0.19633621239695964,*,r(100)
choice_jensen_shannon,Q_RecommendationSatisfaction,0.27210788398037666,0.39070885866336835,0.08588893517494234,o,r(100)
choice_jensen_shannon,Q_ChoiceSatisfaction,0.18390244857859725,0.5618479654340719,0.05810591101896629,o,r(100)
choice_jensen_shannon,Q_PerceivedSystemEffectiveness,0.11471253680002533,0.7174661848747234,0.03626335757743442,o,r(100)
choice_jensen_shannon,Q_OpennessSimilarRecommendations,0.2995420756373928,0.3447250891772601,0.0945112824716104,o,r(100)
choice_jensen_shannon,Q_UseIntention,-0.02283557454135329,0.9425763418584636,-0.007221148583180541,o,r(100)
choice_jensen_shannon,Q_ChoiceListeningIntention,0.2749485593600396,0.3857814260363298,0.08678220277965033,o,r(100)
choice_head_ratio,time_spent,-0.1556162784487728,0.6235160114363372,-0.04918040474137151,o,r(100)
choice_head_ratio,Q_RecommendationSatisfaction,-0.3700715391717121,0.243070759020428,-0.11662690491595323,o,r(100)
choice_head_ratio,Q_ChoiceSatisfaction,-0.2245387657255534,0.4787705209755316,-0.07091595060576043,o,r(100)
choice_head_ratio,Q_PerceivedSystemEffectiveness,-0.23995407112501563,0.44910547013809526,-0.07577099299946306,o,r(100)
choice_head_ratio,Q_OpennessSimilarRecommendations,-0.3363101970055145,0.2887578446895014,-0.10605033016529361,o,r(100)
choice_head_ratio,Q_UseIntention,-0.2409408860415212,0.44724264368456823,-0.07608169978373602,o,r(100)
choice_head_ratio,Q_ChoiceListeningIntention,-0.2554110389089526,0.420436403301999,-0.08063644762867712,o,r(100)
choice_mid_ratio,time_spent,-0.6863491003377381,0.03039316063327844,-0.214501784112752,*,r(100)
choice_mid_ratio,Q_RecommendationSatisfaction,0.36365382392343004,0.25133944149601234,0.11461787356874883,o,r(100)
choice_mid_ratio,Q_ChoiceSatisfaction,0.19303257823224784,0.5425915305919323,0.06098542422112075,o,r(100)
choice_mid_ratio,Q_PerceivedSystemEffectiveness,0.22005671249928682,0.4875923518743177,0.06950384869801549,o,r(100)
choice_mid_ratio,Q_OpennessSimilarRecommendations,-0.02448486548061,0.9384369017444416,-0.00774267826622401,o,r(100)
choice_mid_ratio,Q_UseIntention,0.04006914456160815,0.8994205331064742,0.012670467488315044,o,r(100)
choice_mid_ratio,Q_ChoiceListeningIntention,-0.12146319563889321,0.7016149131856129,-0.03839587074690132,o,r(100)
choice_tail_ratio,time_spent,0.7043345444549021,0.02630701016243829,0.21998513912003811,*,r(100)
choice_tail_ratio,Q_RecommendationSatisfaction,-0.16383955862252916,0.6052868698400475,-0.051775859953224396,o,r(100)
choice_tail_ratio,Q_ChoiceSatisfaction,-0.07422948844488245,0.8148699387664762,-0.023470192051949532,o,r(100)
choice_tail_ratio,Q_PerceivedSystemEffectiveness,-0.0919562163364554,0.7717664515093715,-0.029072962229183933,o,r(100)
choice_tail_ratio,Q_OpennessSimilarRecommendations,0.17701370721805115,0.5765923693075165,0.05593281727409171,o,r(100)
choice_tail_ratio,Q_UseIntention,0.07387765409128584,0.8157316145419841,0.02335897801574065,o,r(100)
choice_tail_ratio,Q_ChoiceListeningIntention,0.22937155806722553,0.4693568556141265,0.07243831594953849,o,r(100)
Q_MusicalSophistication,time_spent,-0.3773826152720826,0.2338862913088747,-0.11891472148621136,o,r(100)
Q_MusicalSophistication,choice_mean_interactions,-0.5967205598958357,0.05980222989483243,-0.18702736966403202,o,r(100)
Q_MusicalSophistication,choice_median_interactions,-0.6241828167659845,0.0489686153355494,-0.19547085045038426,*,r(100)
Q_MusicalSophistication,choice_popularity_lift,0.03891463145912017,0.9023037894533149,0.012305421095455656,o,r(100)
Q_MusicalSophistication,choice_jensen_shannon,0.16381568883228778,0.6053394367883776,0.051768326848697185,o,r(100)
Q_MusicalSophistication,choice_head_ratio,-0.7786375082487378,0.014050751649303472,-0.24252346598469915,*,r(100)
Q_MusicalSophistication,choice_mid_ratio,0.03402860494204408,0.9145198707966168,0.010760478215678085,o,r(100)
Q_MusicalSophistication,choice_tail_ratio,0.32250569779358695,0.3090078445284099,0.10172041503865258,o,r(100)
Q_MusicalEngagement,time_spent,-0.7184384339595823,0.023443548575679745,-0.22427770889807477,*,r(100)
Q_MusicalEngagement,choice_mean_interactions,-0.6272744386662568,0.0478592942497048,-0.19642003531276303,*,r(100)
Q_MusicalEngagement,choice_median_interactions,-1.020739381372086,0.0012857359016099179,-0.31449054948835004,**,r(100)
Q_MusicalEngagement,choice_popularity_lift,0.09853376843923822,0.7559426343673913,0.031151551368177786,o,r(100)
Q_MusicalEngagement,choice_jensen_shannon,0.01485213749190384,0.9626333245052414,0.0046966323592860185,o,r(100)
Q_MusicalEngagement,choice_head_ratio,-0.9862184557204843,0.001868591349719729,-0.30438070722643085,**,r(100)
Q_MusicalEngagement,choice_mid_ratio,0.2336309782102517,0.46114562238434603,0.07377985476732779,o,r(100)
Q_MusicalEngagement,choice_tail_ratio,0.22864566891701538,0.47076423084173685,0.07220967154838341,o,r(100)
Q_Perceived_Popularity,time_spent,-0.7190209436996811,0.02333134078626323,-0.2244548561448403,*,r(100)
Q_Perceived_Popularity,choice_mean_interactions,0.297727290003612,0.34765589133859787,0.09394122827138557,o,r(100)
Q_Perceived_Popularity,choice_median_interactions,0.5605683751230555,0.0770237916417855,0.17588019951543807,o,r(100)
Q_Perceived_Popularity,choice_popularity_lift,0.36059797125409726,0.25534485493318376,0.1136610062180562,o,r(100)
Q_Perceived_Popularity,choice_jensen_shannon,0.19932951082084382,0.5295050570073425,0.06297094543384005,o,r(100)
Q_Perceived_Popularity,choice_head_ratio,0.4280879631196386,0.17690416225759306,0.13475451702913185,o,r(100)
Q_Perceived_Popularity,choice_mid_ratio,0.9566388279380873,0.002551753123028141,0.29567545106789145,**,r(100)
Q_Perceived_Popularity,choice_tail_ratio,-1.0880842594892464,0.0006006571006071358,-0.3340532453821901,***,r(100)
Q_PerceivedFairness,time_spent,0.4710777374460338,0.13729214015581112,0.14814371346221655,o,r(100)
Q_PerceivedFairness,choice_mean_interactions,0.24935818374136762,0.4315328364142897,0.07873149926711692,o,r(100)
Q_PerceivedFairness,choice_median_interactions,0.2796048601812744,0.3777871628374956,0.08824617740626507,o,r(100)
Q_PerceivedFairness,choice_popularity_lift,-0.300493771475505,0.3431944593779579,-0.09481020726741787,o,r(100)
Q_PerceivedFairness,choice_jensen_shannon,-0.0472557761084472,0.8815040989022537,-0.014942754267138416,o,r(100)
Q_PerceivedFairness,choice_head_ratio,0.10058169568207599,0.7510363504702542,0.03179868148580994,o,r(100)
Q_PerceivedFairness,choice_mid_ratio,-0.016985512005457663,0.9572707528397368,-0.005371251774821952,o,r(100)
Q_PerceivedFairness,choice_tail_ratio,-0.030654121403492197,0.9229687617074593,-0.009693456610451035,o,r(100)
Q_Discovery,time_spent,0.5595239699618882,0.0775758913650336,0.17555764751844097,o,r(100)
Q_Discovery,choice_mean_interactions,-0.6077966337110856,0.05521467818078507,-0.19043537570208183,o,r(100)
Q_Discovery,choice_median_interactions,-0.31423512127618886,0.3215793202525839,-0.09912487018261075,o,r(100)
Q_Discovery,choice_popularity_lift,-0.8488591879178673,0.007420108786999613,-0.2636416030121769,**,r(100)
Q_Discovery,choice_jensen_shannon,0.1035580132570793,0.7439238503667903,0.032739140431,o,r(100)
Q_Discovery,choice_head_ratio,-0.38734480735514076,0.22177132162207763,-0.12203060331418189,o,r(100)
Q_Discovery,choice_mid_ratio,-0.1553059302315033,0.6242086157651011,-0.04908244181936748,o,r(100)
Q_Discovery,choice_tail_ratio,0.3212355671288242,0.31091706766224025,0.10132187854602312,o,r(100)
Q_Familiarity,time_spent,-0.8533955388972733,0.007109328580631607,-0.26499938878249657,**,r(100)
Q_Familiarity,choice_mean_interactions,0.47862291854720196,0.13110716617670842,0.1504895493490491,o,r(100)
Q_Familiarity,choice_median_interactions,0.7628165332650083,0.0161249826415761,0.23774051990418502,*,r(100)
Q_Familiarity,choice_popularity_lift,0.2515596389701302,0.42747749616426367,0.07942438955755811,o,r(100)
Q_Familiarity,choice_jensen_shannon,0.18372723194033053,0.5622207229963189,0.05805064296384176,o,r(100)
Q_Familiarity,choice_head_ratio,0.4633159992292969,0.14388700354550335,0.1457292340643387,o,r(100)
Q_Familiarity,choice_mid_ratio,0.8685853023470907,0.006151991687142954,0.2695399756165563,**,r(100)
Q_Familiarity,choice_tail_ratio,-1.0226847659403238,0.0012585188043274396,-0.3150586540175124,**,r(100)
Q_PerceivedRecommendationQuality,time_spent,0.3342438216711524,0.291730755437746,0.10540238104116705,o,r(100)
Q_PerceivedRecommendationQuality,choice_mean_interactions,-0.2890240002699802,0.36193068436891696,-0.09120674186786878,o,r(100)
Q_PerceivedRecommendationQuality,choice_median_interactions,0.0004877546023463528,0.9987724037643398,0.00015424154734704912,o,r(100)
Q_PerceivedRecommendationQuality,choice_popularity_lift,-0.9692269913860665,0.00223705533717362,-0.2993848573343065,**,r(100)
Q_PerceivedRecommendationQuality,choice_jensen_shannon,0.49626967865921584,0.11748623848298424,0.15597098637813728,o,r(100)
Q_PerceivedRecommendationQuality,choice_head_ratio,-0.40644147990948204,0.19981850487573288,-0.1279983779159622,o,r(100)
Q_PerceivedRecommendationQuality,choice_mid_ratio,0.3762462719440353,0.2352974368195463,0.11855919351442591,o,r(100)
Q_PerceivedRecommendationQuality,choice_tail_ratio,-0.1587462414715696,0.6165495560846324,-0.05016835282888736,o,r(100)
Q_RecommendationSatisfaction,time_spent,0.3514215209652675,0.26763857808138397,0.11078667034865233,o,r(100)
Q_RecommendationSatisfaction,choice_mean_interactions,-0.3553345164464787,0.26234744567753276,-0.11201250923369149,o,r(100)
Q_RecommendationSatisfaction,choice_median_interactions,-0.0761772121603225,0.8101038559928827,-0.02408585513346897,o,r(100)
Q_RecommendationSatisfaction,choice_popularity_lift,-0.870391163761326,0.006046267303698694,-0.27007918246497004,**,r(100)
Q_RecommendationSatisfaction,choice_jensen_shannon,0.27210788398037666,0.39070885866336835,0.08588893517494234,o,r(100)
Q_RecommendationSatisfaction,choice_head_ratio,-0.3700715391717121,0.243070759020428,-0.11662690491595323,o,r(100)
Q_RecommendationSatisfaction,choice_mid_ratio,0.36365382392343004,0.25133944149601234,0.11461787356874883,o,r(100)
Q_RecommendationSatisfaction,choice_tail_ratio,-0.16383955862252916,0.6052868698400475,-0.051775859953224396,o,r(100)
Q_ChoiceSatisfaction,time_spent,0.5335742501891245,0.09235987511126241,0.16753434809884946,o,r(100)
Q_ChoiceSatisfaction,choice_mean_interactions,-0.12836380449304002,0.6855447058535448,-0.04057548136579831,o,r(100)
Q_ChoiceSatisfaction,choice_median_interactions,-0.03724898488975167,0.9064658014579575,-0.011778754699306447,o,r(100)
Q_ChoiceSatisfaction,choice_popularity_lift,-0.9750882913609473,0.0021030264678518853,-0.30110965196162903,**,r(100)
Q_ChoiceSatisfaction,choice_jensen_shannon,0.18390244857859725,0.5618479654340719,0.05810591101896629,o,r(100)
Q_ChoiceSatisfaction,choice_head_ratio,-0.2245387657255534,0.4787705209755316,-0.07091595060576043,o,r(100)
Q_ChoiceSatisfaction,choice_mid_ratio,0.19303257823224784,0.5425915305919323,0.06098542422112075,o,r(100)
Q_ChoiceSatisfaction,choice_tail_ratio,-0.07422948844488245,0.8148699387664762,-0.023470192051949532,o,r(100)
Q_PerceivedSystemEffectiveness,time_spent,0.3021645272446472,0.3405178732475926,0.09533495548877938,o,r(100)
Q_PerceivedSystemEffectiveness,choice_mean_interactions,-0.06210104126362125,0.8446959356016231,-0.01963618026232371,o,r(100)
Q_PerceivedSystemEffectiveness,choice_median_interactions,0.10542314336049069,0.7394778176816652,0.03332846347901738,o,r(100)
Q_PerceivedSystemEffectiveness,choice_popularity_lift,-0.663611700079318,0.03632956289185975,-0.20755492846164975,*,r(100)
Q_PerceivedSystemEffectiveness,choice_jensen_shannon,0.11471253680002533,0.7174661848747234,0.03626335757743442,o,r(100)
Q_PerceivedSystemEffectiveness,choice_head_ratio,-0.23995407112501563,0.44910547013809526,-0.07577099299946306,o,r(100)
Q_PerceivedSystemEffectiveness,choice_mid_ratio,0.22005671249928682,0.4875923518743177,0.06950384869801549,o,r(100)
Q_PerceivedSystemEffectiveness,choice_tail_ratio,-0.0919562163364554,0.7717664515093715,-0.029072962229183933,o,r(100)
