strict digraph "" {
	subgraph cluster_SSA {
		graph [color=darkgreen,
			label=SSA
		];
		"Q: Perc. Popularity"	[shape=box];
		"Q: Perc. Fairness"	[shape=box];
		"Q: Discovery"	[shape=box];
		"Q: Familiarity"	[shape=box];
		"Q: Perc. Rec. Quality"	[shape=box];
	}
	subgraph cluster_EXP {
		graph [color=orange,
			label=EXP
		];
		"Q: Rec. Satisfaction"	[shape=box];
		"Q: Choice Satisfaction"	[shape=box];
		"Q: Perc. System Effectiveness"	[shape=box];
	}
	subgraph cluster_BI {
		graph [color=pink,
			label=BI
		];
		"Q: Openness to Sim. Rec."	[shape=box];
		"Q: Use Intention"	[shape=box];
		"Q: Choice Listening Intention"	[shape=box];
	}
	subgraph cluster_INT {
		graph [color=blue,
			label=INT
		];
		"Time Spent"	[shape=ellipse];
		"C: UPD"	[shape=ellipse];
		"Time Spent" -> "C: UPD"	[dir=both,
			label="r(100) = 0.20
p = .048
*"];
		"C: Mid Ratio"	[shape=ellipse];
		"Time Spent" -> "C: Mid Ratio"	[dir=both,
			label="r(100) = -0.21
p = .030
*"];
		"C: Tail Ratio"	[shape=ellipse];
		"Time Spent" -> "C: Tail Ratio"	[dir=both,
			label="r(100) = 0.22
p = .026
*"];
		"C: Mean POP"	[shape=ellipse];
		"C: Med POP"	[shape=ellipse];
		"C: Mean POP" -> "C: Med POP"	[dir=both,
			label="r(100) = 0.82
p < .001
***"];
		"C: Pop Lift"	[shape=ellipse];
		"C: Mean POP" -> "C: Pop Lift"	[dir=both,
			label="r(100) = 0.69
p < .001
***"];
		"C: Head Ratio"	[shape=ellipse];
		"C: Mean POP" -> "C: Head Ratio"	[dir=both,
			label="r(100) = 0.76
p < .001
***"];
		"C: Mean POP" -> "C: Mid Ratio"	[dir=both,
			label="r(100) = 0.24
p = .014
*"];
		"C: Mean POP" -> "C: Tail Ratio"	[dir=both,
			label="r(100) = -0.57
p < .001
***"];
		"C: Med POP" -> "C: Pop Lift"	[dir=both,
			label="r(100) = 0.51
p < .001
***"];
		"C: Med POP" -> "C: Head Ratio"	[dir=both,
			label="r(100) = 0.75
p < .001
***"];
		"C: Med POP" -> "C: Mid Ratio"	[dir=both,
			label="r(100) = 0.34
p < .001
***"];
		"C: Med POP" -> "C: Tail Ratio"	[dir=both,
			label="r(100) = -0.65
p < .001
***"];
		"C: Pop Lift" -> "C: Head Ratio"	[dir=both,
			label="r(100) = 0.50
p < .001
***"];
		"C: Pop Lift" -> "C: Mid Ratio"	[dir=both,
			label="r(100) = 0.30
p = .002
**"];
		"C: Pop Lift" -> "C: Tail Ratio"	[dir=both,
			label="r(100) = -0.51
p < .001
***"];
		"C: UPD" -> "C: Head Ratio"	[dir=both,
			label="r(100) = -0.21
p = .036
*"];
		"C: Head Ratio" -> "C: Tail Ratio"	[dir=both,
			label="r(100) = -0.40
p < .001
***"];
		"C: Mid Ratio" -> "C: Tail Ratio"	[dir=both,
			label="r(100) = -0.89
p < .001
***"];
	}
	subgraph cluster_PC {
		graph [color=red,
			label=PC
		];
		"P: Mean POP"	[shape=ellipse];
		"P: Med POP"	[shape=ellipse];
		"P: Mean POP" -> "P: Med POP"	[dir=both,
			label="r(100) = 0.86
p < .001
***"];
		"P: Profile Size"	[shape=ellipse];
		"P: Mean POP" -> "P: Profile Size"	[dir=both,
			label="r(100) = 0.52
p < .001
***"];
		"P: Head Ratio"	[shape=ellipse];
		"P: Mean POP" -> "P: Head Ratio"	[dir=both,
			label="r(100) = 0.99
p < .001
***"];
		"P: Tail Ratio"	[shape=ellipse];
		"P: Mean POP" -> "P: Tail Ratio"	[dir=both,
			label="r(100) = -0.78
p < .001
***"];
		"P: Med POP" -> "P: Profile Size"	[dir=both,
			label="r(100) = 0.62
p < .001
***"];
		"P: Med POP" -> "P: Head Ratio"	[dir=both,
			label="r(100) = 0.82
p < .001
***"];
		"P: Mid Ratio"	[shape=ellipse];
		"P: Med POP" -> "P: Mid Ratio"	[dir=both,
			label="r(100) = 0.44
p < .001
***"];
		"P: Med POP" -> "P: Tail Ratio"	[dir=both,
			label="r(100) = -0.88
p < .001
***"];
		"P: Profile Size" -> "P: Head Ratio"	[dir=both,
			label="r(100) = 0.49
p < .001
***"];
		"P: Profile Size" -> "P: Mid Ratio"	[dir=both,
			label="r(100) = 0.56
p < .001
***"];
		"P: Profile Size" -> "P: Tail Ratio"	[dir=both,
			label="r(100) = -0.71
p < .001
***"];
		"P: Head Ratio" -> "P: Tail Ratio"	[dir=both,
			label="r(100) = -0.76
p < .001
***"];
		"P: Mid Ratio" -> "P: Tail Ratio"	[dir=both,
			label="r(100) = -0.70
p < .001
***"];
		Age	[shape=box];
		Gender	[shape=box];
		"Q: Musical Soph."	[shape=box];
		"Q: Musical Eng."	[shape=box];
	}
	subgraph cluster_OSA {
		graph [color=purple,
			label=OSA
		];
		Condition	[shape=octagon];
		"R: Mean POP"	[shape=octagon];
		Condition -> "R: Mean POP"	[label="F(2,100) = 252.57
p < .001
η²: 0.59
***"];
		"R: Med POP"	[shape=octagon];
		Condition -> "R: Med POP"	[label="F(2,100) = 123.19
p < .001
η²: 0.49
***"];
		"R: Pop Lift"	[shape=octagon];
		Condition -> "R: Pop Lift"	[label="F(2,100) = 135.25
p < .001
η²: 0.59
***"];
		"R: UPD"	[shape=octagon];
		Condition -> "R: UPD"	[label="F(2,100) = 190.97
p < .001
η²: 0.78
***"];
		"R: Head Ratio"	[shape=octagon];
		Condition -> "R: Head Ratio"	[label="F(2,100) = 77.23
p < .001
η²: 0.47
***"];
		"R: Mid Ratio"	[shape=octagon];
		Condition -> "R: Mid Ratio"	[label="F(2,100) = 372.17
p < .001
η²: 0.87
***"];
		"R: Tail Ratio"	[shape=octagon];
		Condition -> "R: Tail Ratio"	[label="F(2,100) = 463.17
p < .001
η²: 0.87
***"];
		"Trial Nmbr"	[shape=octagon];
		"Trial Nmbr" -> "R: Mean POP"	[label="F(2,100) = 3.18
p = .048
η²: 0.06
*"];
		"Trial Nmbr" -> "R: Pop Lift"	[label="F(2,100) = 4.21
p = .019
η²: 0.08
*"];
		"R: Mean POP" -> "R: Med POP"	[dir=both,
			label="r(100) = 0.96
p < .001
***"];
		"R: Mean POP" -> "R: Pop Lift"	[dir=both,
			label="r(100) = 0.55
p < .001
***"];
		"R: Mean POP" -> "R: UPD"	[dir=both,
			label="r(100) = -0.30
p = .002
**"];
		"R: Mean POP" -> "R: Head Ratio"	[dir=both,
			label="r(100) = 0.72
p < .001
***"];
		"R: Mean POP" -> "R: Mid Ratio"	[dir=both,
			label="r(100) = 0.76
p < .001
***"];
		"R: Mean POP" -> "R: Tail Ratio"	[dir=both,
			label="r(100) = -0.86
p < .001
***"];
		"R: Med POP" -> "R: Pop Lift"	[dir=both,
			label="r(100) = 0.50
p < .001
***"];
		"R: Med POP" -> "R: Head Ratio"	[dir=both,
			label="r(100) = 0.66
p < .001
***"];
		"R: Med POP" -> "R: Mid Ratio"	[dir=both,
			label="r(100) = 0.72
p < .001
***"];
		"R: Med POP" -> "R: Tail Ratio"	[dir=both,
			label="r(100) = -0.80
p < .001
***"];
		"R: Pop Lift" -> "R: Head Ratio"	[dir=both,
			label="r(100) = 0.23
p = .020
*"];
		"R: Pop Lift" -> "R: Mid Ratio"	[dir=both,
			label="r(100) = 0.72
p < .001
***"];
		"R: Pop Lift" -> "R: Tail Ratio"	[dir=both,
			label="r(100) = -0.71
p < .001
***"];
		"R: UPD" -> "R: Head Ratio"	[dir=both,
			label="r(100) = -0.63
p < .001
***"];
		"R: Head Ratio" -> "R: Mid Ratio"	[dir=both,
			label="r(100) = 0.25
p = .010
**"];
		"R: Head Ratio" -> "R: Tail Ratio"	[dir=both,
			label="r(100) = -0.45
p < .001
***"];
		"R: Mid Ratio" -> "R: Tail Ratio"	[dir=both,
			label="r(100) = -0.98
p < .001
***"];
	}
	Condition -> "C: Mean POP"	[label="F(2,100) = 42.29
p < .001
η²: 0.19
***"];
	Condition -> "C: Med POP"	[label="F(2,100) = 51.36
p < .001
η²: 0.35
***"];
	Condition -> "C: Pop Lift"	[label="F(2,100) = 30.77
p < .001
η²: 0.25
***"];
	Condition -> "C: UPD"	[label="F(2,100) = 13.76
p < .001
η²: 0.24
***"];
	Condition -> "C: Head Ratio"	[label="F(2,100) = 17.21
p < .001
η²: 0.20
***"];
	Condition -> "C: Mid Ratio"	[label="F(2,100) = 83.90
p < .001
η²: 0.62
***"];
	Condition -> "C: Tail Ratio"	[label="F(2,100) = 160.06
p < .001
η²: 0.71
***"];
	"Trial Nmbr" -> "C: Med POP"	[label="F(2,100) = 4.61
p = .013
η²: 0.07
*"];
	"Trial Nmbr" -> "C: Pop Lift"	[label="F(2,100) = 3.84
p = .027
η²: 0.05
*"];
	"R: Mean POP" -> "P: Mean POP"	[dir=both,
		label="r(100) = 0.49
p < .001
***"];
	"R: Mean POP" -> "P: Med POP"	[dir=both,
		label="r(100) = 0.48
p < .001
***"];
	"R: Mean POP" -> "P: Profile Size"	[dir=both,
		label="r(100) = 0.30
p = .002
**"];
	"R: Mean POP" -> "P: Head Ratio"	[dir=both,
		label="r(100) = 0.48
p < .001
***"];
	"R: Mean POP" -> "P: Tail Ratio"	[dir=both,
		label="r(100) = -0.42
p < .001
***"];
	"R: Mean POP" -> "C: Mean POP"	[dir=both,
		label="r(100) = 0.73
p < .001
***"];
	"R: Mean POP" -> "C: Med POP"	[dir=both,
		label="r(100) = 0.82
p < .001
***"];
	"R: Mean POP" -> "C: Pop Lift"	[dir=both,
		label="r(100) = 0.46
p < .001
***"];
	"R: Mean POP" -> "C: Head Ratio"	[dir=both,
		label="r(100) = 0.56
p < .001
***"];
	"R: Mean POP" -> "C: Mid Ratio"	[dir=both,
		label="r(100) = 0.61
p < .001
***"];
	"R: Mean POP" -> "C: Tail Ratio"	[dir=both,
		label="r(100) = -0.82
p < .001
***"];
	"R: Med POP" -> "P: Mean POP"	[dir=both,
		label="r(100) = 0.51
p < .001
***"];
	"R: Med POP" -> "P: Med POP"	[dir=both,
		label="r(100) = 0.49
p < .001
***"];
	"R: Med POP" -> "P: Profile Size"	[dir=both,
		label="r(100) = 0.29
p = .003
**"];
	"R: Med POP" -> "P: Head Ratio"	[dir=both,
		label="r(100) = 0.48
p < .001
***"];
	"R: Med POP" -> "P: Tail Ratio"	[dir=both,
		label="r(100) = -0.43
p < .001
***"];
	"R: Med POP" -> "C: Mean POP"	[dir=both,
		label="r(100) = 0.74
p < .001
***"];
	"R: Med POP" -> "C: Med POP"	[dir=both,
		label="r(100) = 0.79
p < .001
***"];
	"R: Med POP" -> "C: Pop Lift"	[dir=both,
		label="r(100) = 0.45
p < .001
***"];
	"R: Med POP" -> "C: Head Ratio"	[dir=both,
		label="r(100) = 0.55
p < .001
***"];
	"R: Med POP" -> "C: Mid Ratio"	[dir=both,
		label="r(100) = 0.55
p < .001
***"];
	"R: Med POP" -> "C: Tail Ratio"	[dir=both,
		label="r(100) = -0.76
p < .001
***"];
	"R: Pop Lift" -> "P: Mean POP"	[dir=both,
		label="r(100) = -0.34
p < .001
***"];
	"R: Pop Lift" -> "P: Med POP"	[dir=both,
		label="r(100) = -0.20
p = .047
*"];
	"R: Pop Lift" -> "P: Head Ratio"	[dir=both,
		label="r(100) = -0.36
p < .001
***"];
	"R: Pop Lift" -> "P: Tail Ratio"	[dir=both,
		label="r(100) = 0.28
p = .005
**"];
	"R: Pop Lift" -> "Time Spent"	[dir=both,
		label="r(100) = -0.21
p = .039
*"];
	"R: Pop Lift" -> "C: Mean POP"	[dir=both,
		label="r(100) = 0.34
p < .001
***"];
	"R: Pop Lift" -> "C: Med POP"	[dir=both,
		label="r(100) = 0.36
p < .001
***"];
	"R: Pop Lift" -> "C: Pop Lift"	[dir=both,
		label="r(100) = 0.72
p < .001
***"];
	"R: Pop Lift" -> "C: Head Ratio"	[dir=both,
		label="r(100) = 0.24
p = .015
*"];
	"R: Pop Lift" -> "C: Mid Ratio"	[dir=both,
		label="r(100) = 0.58
p < .001
***"];
	"R: Pop Lift" -> "C: Tail Ratio"	[dir=both,
		label="r(100) = -0.64
p < .001
***"];
	"R: UPD" -> "P: Med POP"	[dir=both,
		label="r(100) = -0.23
p = .022
*"];
	"R: UPD" -> "P: Tail Ratio"	[dir=both,
		label="r(100) = 0.20
p = .044
*"];
	"R: UPD" -> "C: Mean POP"	[dir=both,
		label="r(100) = -0.29
p = .003
**"];
	"R: UPD" -> "C: Med POP"	[dir=both,
		label="r(100) = -0.32
p = .001
**"];
	"R: UPD" -> "C: UPD"	[dir=both,
		label="r(100) = 0.55
p < .001
***"];
	"R: UPD" -> "C: Head Ratio"	[dir=both,
		label="r(100) = -0.39
p < .001
***"];
	"R: Head Ratio" -> "P: Mean POP"	[dir=both,
		label="r(100) = 0.48
p < .001
***"];
	"R: Head Ratio" -> "P: Med POP"	[dir=both,
		label="r(100) = 0.42
p < .001
***"];
	"R: Head Ratio" -> "P: Head Ratio"	[dir=both,
		label="r(100) = 0.50
p < .001
***"];
	"R: Head Ratio" -> "P: Tail Ratio"	[dir=both,
		label="r(100) = -0.35
p < .001
***"];
	"R: Head Ratio" -> "C: Mean POP"	[dir=both,
		label="r(100) = 0.63
p < .001
***"];
	"R: Head Ratio" -> "C: Med POP"	[dir=both,
		label="r(100) = 0.73
p < .001
***"];
	"R: Head Ratio" -> "C: Pop Lift"	[dir=both,
		label="r(100) = 0.26
p = .008
**"];
	"R: Head Ratio" -> "C: UPD"	[dir=both,
		label="r(100) = -0.31
p = .002
**"];
	"R: Head Ratio" -> "C: Head Ratio"	[dir=both,
		label="r(100) = 0.73
p < .001
***"];
	"R: Head Ratio" -> "C: Tail Ratio"	[dir=both,
		label="r(100) = -0.46
p < .001
***"];
	"R: Mid Ratio" -> "C: Mean POP"	[dir=both,
		label="r(100) = 0.43
p < .001
***"];
	"R: Mid Ratio" -> "C: Med POP"	[dir=both,
		label="r(100) = 0.52
p < .001
***"];
	"R: Mid Ratio" -> "C: Pop Lift"	[dir=both,
		label="r(100) = 0.45
p < .001
***"];
	"R: Mid Ratio" -> "C: UPD"	[dir=both,
		label="r(100) = 0.20
p = .042
*"];
	"R: Mid Ratio" -> "C: Head Ratio"	[dir=both,
		label="r(100) = 0.20
p = .048
*"];
	"R: Mid Ratio" -> "C: Mid Ratio"	[dir=both,
		label="r(100) = 0.85
p < .001
***"];
	"R: Mid Ratio" -> "C: Tail Ratio"	[dir=both,
		label="r(100) = -0.87
p < .001
***"];
	"R: Tail Ratio" -> "P: Mean POP"	[dir=both,
		label="r(100) = -0.21
p = .034
*"];
	"R: Tail Ratio" -> "P: Med POP"	[dir=both,
		label="r(100) = -0.25
p = .011
*"];
	"R: Tail Ratio" -> "P: Head Ratio"	[dir=both,
		label="r(100) = -0.20
p = .047
*"];
	"R: Tail Ratio" -> "P: Tail Ratio"	[dir=both,
		label="r(100) = 0.23
p = .020
*"];
	"R: Tail Ratio" -> "C: Mean POP"	[dir=both,
		label="r(100) = -0.53
p < .001
***"];
	"R: Tail Ratio" -> "C: Med POP"	[dir=both,
		label="r(100) = -0.63
p < .001
***"];
	"R: Tail Ratio" -> "C: Pop Lift"	[dir=both,
		label="r(100) = -0.47
p < .001
***"];
	"R: Tail Ratio" -> "C: Head Ratio"	[dir=both,
		label="r(100) = -0.34
p < .001
***"];
	"R: Tail Ratio" -> "C: Mid Ratio"	[dir=both,
		label="r(100) = -0.81
p < .001
***"];
	"R: Tail Ratio" -> "C: Tail Ratio"	[dir=both,
		label="r(100) = 0.90
p < .001
***"];
	"P: Mean POP" -> "C: Mean POP"	[dir=both,
		label="r(100) = 0.47
p < .001
***"];
	"P: Mean POP" -> "C: Med POP"	[dir=both,
		label="r(100) = 0.48
p < .001
***"];
	"P: Mean POP" -> "C: Head Ratio"	[dir=both,
		label="r(100) = 0.33
p < .001
***"];
	"P: Mean POP" -> "C: Tail Ratio"	[dir=both,
		label="r(100) = -0.24
p = .014
*"];
	"P: Med POP" -> "C: Mean POP"	[dir=both,
		label="r(100) = 0.48
p < .001
***"];
	"P: Med POP" -> "C: Med POP"	[dir=both,
		label="r(100) = 0.42
p < .001
***"];
	"P: Med POP" -> "C: Head Ratio"	[dir=both,
		label="r(100) = 0.30
p = .002
**"];
	"P: Med POP" -> "C: Tail Ratio"	[dir=both,
		label="r(100) = -0.24
p = .016
*"];
	"P: Profile Size" -> "C: Med POP"	[dir=both,
		label="r(100) = 0.24
p = .017
*"];
	"P: Head Ratio" -> "C: Mean POP"	[dir=both,
		label="r(100) = 0.46
p < .001
***"];
	"P: Head Ratio" -> "C: Med POP"	[dir=both,
		label="r(100) = 0.47
p < .001
***"];
	"P: Head Ratio" -> "C: Head Ratio"	[dir=both,
		label="r(100) = 0.34
p < .001
***"];
	"P: Head Ratio" -> "C: Tail Ratio"	[dir=both,
		label="r(100) = -0.23
p = .019
*"];
	"P: Tail Ratio" -> "C: Mean POP"	[dir=both,
		label="r(100) = -0.39
p < .001
***"];
	"P: Tail Ratio" -> "C: Med POP"	[dir=both,
		label="r(100) = -0.36
p < .001
***"];
	"P: Tail Ratio" -> "C: Head Ratio"	[dir=both,
		label="r(100) = -0.26
p = .009
**"];
	"P: Tail Ratio" -> "C: Tail Ratio"	[dir=both,
		label="r(100) = 0.24
p = .017
*"];
}
