strict digraph "" {
	subgraph cluster_OSA {
		graph [color=purple,
			label=OSA
		];
		Condition	[shape=octagon];
		"R: Mean POP"	[shape=octagon];
		Condition -> "R: Mean POP"	[label="F(2,49) = 121.75
p < .001
η²: 0.60
***"];
		"R: Med POP"	[shape=octagon];
		Condition -> "R: Med POP"	[label="F(2,49) = 67.68
p < .001
η²: 0.50
***"];
		"R: Pop Lift"	[shape=octagon];
		Condition -> "R: Pop Lift"	[label="F(2,49) = 94.80
p < .001
η²: 0.73
***"];
		"R: UPD"	[shape=octagon];
		Condition -> "R: UPD"	[label="F(2,49) = 81.06
p < .001
η²: 0.72
***"];
		"R: Head Ratio"	[shape=octagon];
		Condition -> "R: Head Ratio"	[label="F(2,49) = 74.67
p < .001
η²: 0.62
***"];
		"R: Mid Ratio"	[shape=octagon];
		Condition -> "R: Mid Ratio"	[label="F(2,49) = 100.87
p < .001
η²: 0.80
***"];
		"R: Tail Ratio"	[shape=octagon];
		Condition -> "R: Tail Ratio"	[label="F(2,49) = 128.36
p < .001
η²: 0.80
***"];
		"Trial Nmbr"	[shape=octagon];
	}
	subgraph cluster_PC {
		graph [color=red,
			label=PC
		];
		"P: Mean POP"	[shape=ellipse];
		"P: Med POP"	[shape=ellipse];
		"P: Profile Size"	[shape=ellipse];
		"P: Head Ratio"	[shape=ellipse];
		"P: Mid Ratio"	[shape=ellipse];
		"P: Tail Ratio"	[shape=ellipse];
		Age	[shape=box];
		Gender	[shape=box];
		"Q: Musical Soph."	[shape=box];
		"Q: Musical Eng."	[shape=box];
	}
	subgraph cluster_SSA {
		graph [color=darkgreen,
			label=SSA
		];
		"Q: Perc. Popularity"	[shape=box];
		"Q: Perc. Fairness"	[shape=box];
		"Q: Discovery"	[shape=box];
		"Q: Familiarity"	[shape=box];
		"Q: Perc. Rec. Quality"	[shape=box];
	}
	subgraph cluster_EXP {
		graph [color=orange,
			label=EXP
		];
		"Q: Rec. Satisfaction"	[shape=box];
		"Q: Choice Satisfaction"	[shape=box];
		"Q: Perc. System Effectiveness"	[shape=box];
	}
	subgraph cluster_INT {
		graph [color=blue,
			label=INT
		];
		"Time Spent"	[shape=ellipse];
		"C: Mean POP"	[shape=ellipse];
		"C: Med POP"	[shape=ellipse];
		"C: Pop Lift"	[shape=ellipse];
		"C: UPD"	[shape=ellipse];
		"C: Head Ratio"	[shape=ellipse];
		"C: Mid Ratio"	[shape=ellipse];
		"C: Tail Ratio"	[shape=ellipse];
	}
	subgraph cluster_BI {
		graph [color=pink,
			label=BI
		];
		"Q: Openness to Sim. Rec."	[shape=box];
		"Q: Use Intention"	[shape=box];
		"Q: Choice Listening Intention"	[shape=box];
	}
	Condition -> "Q: Perc. Popularity"	[label="F(2,49) = 8.00
p = .002
η²: 0.11
**"];
	Condition -> "Q: Familiarity"	[label="F(2,49) = 11.75
p < .001
η²: 0.18
***"];
	"Trial Nmbr" -> "Q: Discovery"	[label="F(2,49) = 3.75
p = .034
η²: 0.04
*"];
	"R: Mean POP" -> "Q: Perc. Fairness"	[label="r(49) = 0.29
p = .042
*"];
	"R: Mean POP" -> "Q: Familiarity"	[label="r(49) = 0.31
p = .025
*"];
	"R: Med POP" -> "Q: Perc. Popularity"	[label="r(49) = 0.28
p = .047
*"];
	"R: Pop Lift" -> "Q: Perc. Fairness"	[label="r(49) = 0.29
p = .042
*"];
	"R: Pop Lift" -> "Q: Familiarity"	[label="r(49) = 0.37
p = .008
**"];
	"R: Mid Ratio" -> "Q: Familiarity"	[label="r(49) = 0.32
p = .024
*"];
	"R: Tail Ratio" -> "Q: Perc. Popularity"	[label="r(49) = -0.28
p = .045
*"];
	"R: Tail Ratio" -> "Q: Familiarity"	[label="r(49) = -0.34
p = .014
*"];
}
