factor1,factor2,statistic,p,effect_size,p<.05,Statistic_symbol
condition,time_spent,1.2274439412315783,0.3064687496236917,0.0507906595887952,o,"F(2,49)"
condition,choice_mean_interactions,21.916265763278354,1.0109060222816848e-06,0.16315548889840814,***,"F(2,49)"
condition,choice_median_interactions,28.85398586323891,6.87231492765972e-08,0.4067583398754322,***,"F(2,49)"
condition,choice_popularity_lift,20.84113767172899,1.6017369536157137e-06,0.31476584185035433,***,"F(2,49)"
condition,choice_jensen_shannon,6.765263214470136,0.003544515713134591,0.2401608460936366,**,"F(2,49)"
condition,choice_head_ratio,17.227272727272727,8.356118387335184e-06,0.3304272013949434,***,"F(2,49)"
condition,choice_mid_ratio,27.741789354473383,1.0270107867974804e-07,0.5016382699868939,***,"F(2,49)"
condition,choice_tail_ratio,58.14193548387097,2.212569982464331e-11,0.673542600896861,***,"F(2,49)"
post_num,time_spent,0.5387927990692424,0.5886522677592265,0.023223143625121484,o,"F(2,49)"
post_num,choice_mean_interactions,0.16149228762459705,0.8515621966360933,0.002820531905253915,o,"F(2,49)"
post_num,choice_median_interactions,1.0478503573563231,0.3624146369480071,0.038865238271646,o,"F(2,49)"
post_num,choice_popularity_lift,0.03248534124814671,0.9680685212705479,0.001127420141242392,o,"F(2,49)"
post_num,choice_jensen_shannon,1.7723358002809289,0.18621195314759098,0.08059195339471922,o,"F(2,49)"
post_num,choice_head_ratio,0.15469613259668527,0.8573122470229926,0.006102877070619014,o,"F(2,49)"
post_num,choice_mid_ratio,0.45675330208777143,0.6374016471046942,0.021952817824377448,o,"F(2,49)"
post_num,choice_tail_ratio,0.3238636363636364,0.7256920938872471,0.01704035874439462,o,"F(2,49)"
time_spent,Q_RecommendationSatisfaction,0.1715422727335725,0.6515937044884901,0.06476877988211681,o,r(49)
time_spent,Q_ChoiceSatisfaction,0.42460479221304875,0.2637041283813443,0.15945552416745803,o,r(49)
time_spent,Q_PerceivedSystemEffectiveness,0.1152647614666189,0.7615772275231746,0.043545317725302415,o,r(49)
time_spent,Q_OpennessSimilarRecommendations,0.26063211302490963,0.4926751046429732,0.09827098150141547,o,r(49)
time_spent,Q_UseIntention,0.43083263496131613,0.2567644193538245,0.1617635411525227,o,r(49)
time_spent,Q_ChoiceListeningIntention,0.17734951424199097,0.6406174441805401,0.06695656011169306,o,r(49)
choice_mean_interactions,time_spent,-0.2719063763250123,0.4741534853261623,-0.10249994613320632,o,r(49)
choice_mean_interactions,Q_RecommendationSatisfaction,-0.462368221115183,0.22357431893079913,-0.17342958295419655,o,r(49)
choice_mean_interactions,Q_ChoiceSatisfaction,0.022848271549505878,0.9520415593810777,0.008635673906824735,o,r(49)
choice_mean_interactions,Q_PerceivedSystemEffectiveness,-0.36390087076461525,0.33811697131549495,-0.13689265389542224,o,r(49)
choice_mean_interactions,Q_OpennessSimilarRecommendations,-0.2903419352372799,0.4447092172884533,-0.10940904890911435,o,r(49)
choice_mean_interactions,Q_UseIntention,-0.23501269379051679,0.5361651672002473,-0.08865140887025977,o,r(49)
choice_mean_interactions,Q_ChoiceListeningIntention,-0.12811832615460345,0.735932504071472,-0.04839579648158531,o,r(49)
choice_median_interactions,time_spent,-0.2823204291353154,0.45739070572736984,-0.10640377327235177,o,r(49)
choice_median_interactions,Q_RecommendationSatisfaction,-0.27997969996411104,0.46112916519853364,-0.10552653590968597,o,r(49)
choice_median_interactions,Q_ChoiceSatisfaction,-0.19612618104990256,0.6056718066682154,-0.07402696310012198,o,r(49)
choice_median_interactions,Q_PerceivedSystemEffectiveness,-0.3814214946360106,0.3153732599917677,-0.14341668429043608,o,r(49)
choice_median_interactions,Q_OpennessSimilarRecommendations,-0.20642166429800268,0.5868804133045934,-0.07790141650447927,o,r(49)
choice_median_interactions,Q_UseIntention,-0.2383108537020859,0.5304599168241179,-0.08989052782953569,o,r(49)
choice_median_interactions,Q_ChoiceListeningIntention,-0.2622962565631695,0.4899170365529525,-0.09889537090849072,o,r(49)
choice_popularity_lift,time_spent,-0.41670097765752817,0.2726962308581372,-0.15652450059408585,o,r(49)
choice_popularity_lift,Q_RecommendationSatisfaction,-0.14065645930609608,0.7111972067444741,-0.05312559378354326,o,r(49)
choice_popularity_lift,Q_ChoiceSatisfaction,0.2633927681575013,0.4881042837388123,0.09930675187318021,o,r(49)
choice_popularity_lift,Q_PerceivedSystemEffectiveness,-0.05447279081070985,0.8859836861487117,-0.020586597902885133,o,r(49)
choice_popularity_lift,Q_OpennessSimilarRecommendations,0.016049182234541767,0.9663025378190172,0.006065964903519009,o,r(49)
choice_popularity_lift,Q_UseIntention,0.1019824243831646,0.7883550661434561,0.03853141839046274,o,r(49)
choice_popularity_lift,Q_ChoiceListeningIntention,0.06631815954526286,0.8614186752316402,0.02506197130673612,o,r(49)
choice_jensen_shannon,time_spent,0.8668401476502258,0.022528880041421246,0.31896336145322307,*,r(49)
choice_jensen_shannon,Q_RecommendationSatisfaction,0.7079465190448546,0.062409186823578856,0.26283270263535435,o,r(49)
choice_jensen_shannon,Q_ChoiceSatisfaction,0.4536855689511313,0.23239012362859734,0.17022115038898547,o,r(49)
choice_jensen_shannon,Q_PerceivedSystemEffectiveness,0.606270160529214,0.11052855473068292,0.22616048574209283,o,r(49)
choice_jensen_shannon,Q_OpennessSimilarRecommendations,0.10201967792376962,0.7882795938525882,0.03854548321409333,o,r(49)
choice_jensen_shannon,Q_UseIntention,0.39631864675603956,0.29684461421227787,0.14895645369524876,o,r(49)
choice_jensen_shannon,Q_ChoiceListeningIntention,0.3226933220924283,0.3956458293834425,0.12151386860616438,o,r(49)
choice_head_ratio,time_spent,-0.12399099765700129,0.7441366583121118,-0.04683846775551614,o,r(49)
choice_head_ratio,Q_RecommendationSatisfaction,-0.41437370471237694,0.27538347442042166,-0.15566106332322863,o,r(49)
choice_head_ratio,Q_ChoiceSatisfaction,-0.14038672137495914,0.7117262684242677,-0.05302385799785196,o,r(49)
choice_head_ratio,Q_PerceivedSystemEffectiveness,-0.48678341164970934,0.2000735252672987,-0.18243643751684582,o,r(49)
choice_head_ratio,Q_OpennessSimilarRecommendations,-0.20461346908222758,0.5901611355765092,-0.07722107191609712,o,r(49)
choice_head_ratio,Q_UseIntention,-0.28442025936551313,0.4540515258666185,-0.10719062263657805,o,r(49)
choice_head_ratio,Q_ChoiceListeningIntention,-0.1374262706947333,0.7175419441572841,-0.05190722479533194,o,r(49)
choice_mid_ratio,time_spent,-0.8694238031649392,0.02213027404112243,-0.3198628703512895,*,r(49)
choice_mid_ratio,Q_RecommendationSatisfaction,0.5497748996184667,0.14785871397195832,0.20556452088414454,o,r(49)
choice_mid_ratio,Q_ChoiceSatisfaction,0.3939657413563997,0.2997216418548601,0.14808194676618538,o,r(49)
choice_mid_ratio,Q_PerceivedSystemEffectiveness,0.4105825462839973,0.27979962197506264,0.15425412781378564,o,r(49)
choice_mid_ratio,Q_OpennessSimilarRecommendations,0.1383602113187409,0.7157054715323808,0.0522595024258205,o,r(49)
choice_mid_ratio,Q_UseIntention,0.18663084337419392,0.6232376839267366,0.0704521338017027,o,r(49)
choice_mid_ratio,Q_ChoiceListeningIntention,0.04877907287799296,0.8978319712383513,0.018435189912897876,o,r(49)
choice_tail_ratio,time_spent,0.9071924927877699,0.016966840124227788,0.3329604427754726,*,r(49)
choice_tail_ratio,Q_RecommendationSatisfaction,-0.27911840967556717,0.46250904751041966,-0.10520371812863276,o,r(49)
choice_tail_ratio,Q_ChoiceSatisfaction,-0.29298329753716523,0.4405777083869161,-0.11039831388156959,o,r(49)
choice_tail_ratio,Q_PerceivedSystemEffectiveness,-0.10723138392326334,0.7777410442371226,-0.04051301289620674,o,r(49)
choice_tail_ratio,Q_OpennessSimilarRecommendations,-0.012433560416043576,0.9738909282379459,-0.00469941816380854,o,r(49)
choice_tail_ratio,Q_UseIntention,-0.011978833504422408,0.9748454809549839,-0.004527550290230078,o,r(49)
choice_tail_ratio,Q_ChoiceListeningIntention,0.033830918639118905,0.9290400091500248,0.01278636266741505,o,r(49)
Q_MusicalSophistication,time_spent,-0.27279985391643324,0.47270220311640165,-0.10283497098798067,o,r(49)
Q_MusicalSophistication,choice_mean_interactions,-0.3056646631591408,0.42105110988084266,-0.11514552485390872,o,r(49)
Q_MusicalSophistication,choice_median_interactions,-0.24525496504271346,0.5185494087777949,-0.0924987435270224,o,r(49)
Q_MusicalSophistication,choice_popularity_lift,-0.33452518025790606,0.37855171892783007,-0.12593431230037594,o,r(49)
Q_MusicalSophistication,choice_jensen_shannon,0.30173633554660856,0.4270449357787493,0.11367538911394269,o,r(49)
Q_MusicalSophistication,choice_head_ratio,-0.4281828265278152,0.2597014555444177,-0.1607816937776894,o,r(49)
Q_MusicalSophistication,choice_mid_ratio,0.33168892283932455,0.3826074107315321,0.12487501015342449,o,r(49)
Q_MusicalSophistication,choice_tail_ratio,-0.06649980955178911,0.8610429471328754,-0.025130596118286462,o,r(49)
Q_MusicalEngagement,time_spent,-0.76195068571841,0.044914135392632316,-0.28208208178213817,*,r(49)
Q_MusicalEngagement,choice_mean_interactions,0.024564765971579302,0.9484434866628082,0.009284408734684769,o,r(49)
Q_MusicalEngagement,choice_median_interactions,-0.3036861127836069,0.42406378033855985,-0.1144051201421888,o,r(49)
Q_MusicalEngagement,choice_popularity_lift,0.20971078419229,0.5809345186047113,0.07913882800044,o,r(49)
Q_MusicalEngagement,choice_jensen_shannon,-0.011059242544163924,0.9767759747159868,-0.0041799825214577984,o,r(49)
Q_MusicalEngagement,choice_head_ratio,-0.49749873497178926,0.19034957711404352,-0.1863821126953603,o,r(49)
Q_MusicalEngagement,choice_mid_ratio,0.6352895676857259,0.09448673269593398,0.23668113148394576,o,r(49)
Q_MusicalEngagement,choice_tail_ratio,-0.31045240185117445,0.41381317012556806,-0.11693677211874533,o,r(49)
Q_Perceived_Popularity,time_spent,-0.6655835392336279,0.079789463530769,-0.24761874451505395,o,r(49)
Q_Perceived_Popularity,choice_mean_interactions,-0.19694752566138976,0.6041628300283556,-0.07433611888475289,o,r(49)
Q_Perceived_Popularity,choice_median_interactions,0.2241075828895392,0.5552463893199133,0.08455290430430101,o,r(49)
Q_Perceived_Popularity,choice_popularity_lift,-0.13927716030988446,0.7139040096273712,-0.05260536140111158,o,r(49)
Q_Perceived_Popularity,choice_jensen_shannon,0.30994759251811504,0.4145728326243611,0.11674793355949495,o,r(49)
Q_Perceived_Popularity,choice_head_ratio,0.08693902961571344,0.8189865486604877,0.03285099543050123,o,r(49)
Q_Perceived_Popularity,choice_mid_ratio,0.6576706182048412,0.08343630621666122,0.24476635065067467,o,r(49)
Q_Perceived_Popularity,choice_tail_ratio,-0.680641216814809,0.07320810573550585,-0.25303753011319163,o,r(49)
Q_PerceivedFairness,time_spent,0.524185297934381,0.16765267301308326,0.196188822742113,o,r(49)
Q_PerceivedFairness,choice_mean_interactions,0.6609823229089349,0.08189392563423795,0.24596052774050514,o,r(49)
Q_PerceivedFairness,choice_median_interactions,0.6888173050828587,0.06982492094379923,0.25597477706452565,o,r(49)
Q_PerceivedFairness,choice_popularity_lift,0.6900628427218181,0.06932098200291406,0.25642191773791373,o,r(49)
Q_PerceivedFairness,choice_jensen_shannon,0.22619833935959974,0.5515625224098082,0.08533885030213634,o,r(49)
Q_PerceivedFairness,choice_head_ratio,0.37954635784806695,0.31775821759485073,0.14271889460981282,o,r(49)
Q_PerceivedFairness,choice_mid_ratio,0.22891685796845054,0.5467905863775051,0.0863606617833587,o,r(49)
Q_PerceivedFairness,choice_tail_ratio,-0.442447865931756,0.24416265159256692,-0.16606451559893443,o,r(49)
Q_Discovery,time_spent,0.47626326438049027,0.2099685053069074,0.17855829028958975,o,r(49)
Q_Discovery,choice_mean_interactions,-0.6368409085077854,0.09368470865244631,-0.23724237825302721,o,r(49)
Q_Discovery,choice_median_interactions,-0.24132135932367382,0.5252793035444285,-0.09102139245448411,o,r(49)
Q_Discovery,choice_popularity_lift,-0.3370943242752342,0.37490092393343044,-0.1268936645410803,o,r(49)
Q_Discovery,choice_jensen_shannon,0.27861263211783643,0.4633204314469586,0.10501414128812843,o,r(49)
Q_Discovery,choice_head_ratio,-0.21400344802645965,0.5732171617814426,-0.08075351022367298,o,r(49)
Q_Discovery,choice_mid_ratio,-0.15728521530815656,0.6788591024262347,-0.05939572287751,o,r(49)
Q_Discovery,choice_tail_ratio,0.2759662893937647,0.4675786842002215,0.10402213888464118,o,r(49)
Q_Familiarity,time_spent,-1.0209990633417088,0.007220578508669772,-0.3718111914381039,**,r(49)
Q_Familiarity,choice_mean_interactions,0.3857090660892396,0.30996426657591986,0.1450118014873331,o,r(49)
Q_Familiarity,choice_median_interactions,0.5842014086523993,0.12411162556796568,0.21813256169260672,o,r(49)
Q_Familiarity,choice_popularity_lift,0.663933279879104,0.08053912876592698,0.24702414044376356,o,r(49)
Q_Familiarity,choice_jensen_shannon,0.14279246864405107,0.7070125856683304,0.05393119300547834,o,r(49)
Q_Familiarity,choice_head_ratio,0.3959967234051074,0.2972371532197747,0.14883681446176855,o,r(49)
Q_Familiarity,choice_mid_ratio,0.8421781478014231,0.02665877859527948,0.31035489313145675,*,r(49)
Q_Familiarity,choice_tail_ratio,-1.056129133448346,0.005456698859585304,-0.38360626125663483,**,r(49)
Q_PerceivedRecommendationQuality,time_spent,0.1457167558424385,0.701298010726184,0.05503400681869491,o,r(49)
Q_PerceivedRecommendationQuality,choice_mean_interactions,-0.407267827460114,0.2837000277437152,-0.15302361584257712,o,r(49)
Q_PerceivedRecommendationQuality,choice_median_interactions,-0.2770333079272104,0.46585913085083147,-0.10442213801220755,o,r(49)
Q_PerceivedRecommendationQuality,choice_popularity_lift,-0.151216288572722,0.6905968126432446,-0.057107728428182875,o,r(49)
Q_PerceivedRecommendationQuality,choice_jensen_shannon,0.8552654911593539,0.024392229873069014,0.3149281386649161,*,r(49)
Q_PerceivedRecommendationQuality,choice_head_ratio,-0.5605309511335462,0.14009284986166393,-0.2094969290264441,o,r(49)
Q_PerceivedRecommendationQuality,choice_mid_ratio,0.624724706378983,0.10009604564514744,0.2328557603197831,o,r(49)
Q_PerceivedRecommendationQuality,choice_tail_ratio,-0.26456705863095714,0.48616696594918074,-0.09974728500463323,o,r(49)
Q_RecommendationSatisfaction,time_spent,0.1715422727335725,0.6515937044884901,0.06476877988211681,o,r(49)
Q_RecommendationSatisfaction,choice_mean_interactions,-0.462368221115183,0.22357431893079913,-0.17342958295419655,o,r(49)
Q_RecommendationSatisfaction,choice_median_interactions,-0.27997969996411104,0.46112916519853364,-0.10552653590968597,o,r(49)
Q_RecommendationSatisfaction,choice_popularity_lift,-0.14065645930609608,0.7111972067444741,-0.05312559378354326,o,r(49)
Q_RecommendationSatisfaction,choice_jensen_shannon,0.7079465190448546,0.062409186823578856,0.26283270263535435,o,r(49)
Q_RecommendationSatisfaction,choice_head_ratio,-0.41437370471237694,0.27538347442042166,-0.15566106332322863,o,r(49)
Q_RecommendationSatisfaction,choice_mid_ratio,0.5497748996184667,0.14785871397195832,0.20556452088414454,o,r(49)
Q_RecommendationSatisfaction,choice_tail_ratio,-0.27911840967556717,0.46250904751041966,-0.10520371812863276,o,r(49)
Q_ChoiceSatisfaction,time_spent,0.42460479221304875,0.2637041283813443,0.15945552416745803,o,r(49)
Q_ChoiceSatisfaction,choice_mean_interactions,0.022848271549505878,0.9520415593810777,0.008635673906824735,o,r(49)
Q_ChoiceSatisfaction,choice_median_interactions,-0.19612618104990256,0.6056718066682154,-0.07402696310012198,o,r(49)
Q_ChoiceSatisfaction,choice_popularity_lift,0.2633927681575013,0.4881042837388123,0.09930675187318021,o,r(49)
Q_ChoiceSatisfaction,choice_jensen_shannon,0.4536855689511313,0.23239012362859734,0.17022115038898547,o,r(49)
Q_ChoiceSatisfaction,choice_head_ratio,-0.14038672137495914,0.7117262684242677,-0.05302385799785196,o,r(49)
Q_ChoiceSatisfaction,choice_mid_ratio,0.3939657413563997,0.2997216418548601,0.14808194676618538,o,r(49)
Q_ChoiceSatisfaction,choice_tail_ratio,-0.29298329753716523,0.4405777083869161,-0.11039831388156959,o,r(49)
Q_PerceivedSystemEffectiveness,time_spent,0.1152647614666189,0.7615772275231746,0.043545317725302415,o,r(49)
Q_PerceivedSystemEffectiveness,choice_mean_interactions,-0.36390087076461525,0.33811697131549495,-0.13689265389542224,o,r(49)
Q_PerceivedSystemEffectiveness,choice_median_interactions,-0.3814214946360106,0.3153732599917677,-0.14341668429043608,o,r(49)
Q_PerceivedSystemEffectiveness,choice_popularity_lift,-0.05447279081070985,0.8859836861487117,-0.020586597902885133,o,r(49)
Q_PerceivedSystemEffectiveness,choice_jensen_shannon,0.606270160529214,0.11052855473068292,0.22616048574209283,o,r(49)
Q_PerceivedSystemEffectiveness,choice_head_ratio,-0.48678341164970934,0.2000735252672987,-0.18243643751684582,o,r(49)
Q_PerceivedSystemEffectiveness,choice_mid_ratio,0.4105825462839973,0.27979962197506264,0.15425412781378564,o,r(49)
Q_PerceivedSystemEffectiveness,choice_tail_ratio,-0.10723138392326334,0.7777410442371226,-0.04051301289620674,o,r(49)
