factor1,factor2,statistic,p,effect_size,p<.05,Statistic_symbol
condition,time_spent,3.8458958623086086,0.03185579091266276,0.12611783426980872,*,"F(2,49)"
condition,rec_mean_interactions,170.05465518175322,8.946868832266382e-18,0.7744730534249279,***,"F(2,49)"
condition,rec_median_interactions,84.32688850943731,1.7508229358844177e-13,0.7139648772389284,***,"F(2,49)"
condition,rec_popularity_lift,112.83441457313452,3.201912862709373e-15,0.696147305123746,***,"F(2,49)"
condition,rec_jensen_shannon,109.02746137952553,5.174079678267726e-15,0.849407444265904,***,"F(2,49)"
condition,rec_head_ratio,32.98305084745763,1.679524813967004e-08,0.5121052631578947,***,"F(2,49)"
condition,rec_mid_ratio,737.5205348615095,1.7076475837374616e-27,0.9529653361240831,***,"F(2,49)"
condition,rec_tail_ratio,755.3023663453114,1.1757773834574034e-27,0.9565267578870725,***,"F(2,49)"
condition,Q_Perceived_Popularity,8.786161945349713,0.0009090153056860211,0.16479837496238336,***,"F(2,49)"
condition,Q_PerceivedFairness,0.8069472277889114,0.45509109718425855,0.020839083632348886,o,"F(2,49)"
condition,Q_Discovery,1.6223557879946917,0.2132535546434488,0.02854882310278894,o,"F(2,49)"
condition,Q_Familiarity,2.794625719769672,0.07609932742897661,0.07851596203623812,o,"F(2,49)"
condition,Q_PerceivedRecommendationQuality,0.3141316073354908,0.7326496373000531,0.007077227326763475,o,"F(2,49)"
condition,Q_RecommendationSatisfaction,0.42507934506168965,0.6573552009335465,0.010859573005713306,o,"F(2,49)"
condition,Q_ChoiceSatisfaction,0.7061392995072575,0.5010743239915092,0.022722909410054573,o,"F(2,49)"
condition,Q_PerceivedSystemEffectiveness,0.23780367371123862,0.7897381964851811,0.003160370424812583,o,"F(2,49)"
condition,Q_OpennessSimilarRecommendations,1.2893576650482736,0.2893729849424431,0.03217612193056733,o,"F(2,49)"
condition,Q_UseIntention,2.2575342465753403,0.12101682077344225,0.017319656969900787,o,"F(2,49)"
condition,Q_ChoiceListeningIntention,2.4639255236617505,0.10109625949720574,0.05601806123888807,o,"F(2,49)"
post_num,time_spent,7.046534439260423,0.0029122567610992967,0.1989846805209275,**,"F(2,49)"
post_num,choice_mean_interactions,5.56597298428311,0.008425871143076332,0.13790697432382468,**,"F(2,49)"
post_num,choice_median_interactions,6.627939464524019,0.0039048071595872234,0.18759541778921113,**,"F(2,49)"
post_num,choice_popularity_lift,5.3675624111177695,0.009768773144921077,0.13529405518836782,**,"F(2,49)"
post_num,choice_jensen_shannon,0.18930104639897236,0.8284573174124409,0.00927968878076831,o,"F(2,49)"
post_num,choice_head_ratio,4.606060606060612,0.017458227850152105,0.1098265895953758,*,"F(2,49)"
post_num,choice_mid_ratio,4.460176991150443,0.019560031157796746,0.2011173184357542,*,"F(2,49)"
post_num,choice_tail_ratio,5.146744412050534,0.011535155735312958,0.21733420879842416,*,"F(2,49)"
post_num,Q_Perceived_Popularity,1.9441016333938292,0.15965120339771266,0.05036864279265723,o,"F(2,49)"
post_num,Q_PerceivedFairness,0.2217923920051582,0.8023027838683867,0.005934308584046374,o,"F(2,49)"
post_num,Q_Discovery,3.8226358767231545,0.032459159288303494,0.05980088349706599,*,"F(2,49)"
post_num,Q_Familiarity,0.9249087766468217,0.406909976091281,0.02885629373981402,o,"F(2,49)"
post_num,Q_PerceivedRecommendationQuality,4.451759978362503,0.019689229770056844,0.08000488850867155,*,"F(2,49)"
post_num,Q_RecommendationSatisfaction,2.600780729315434,0.0898299072106513,0.05867090510760773,o,"F(2,49)"
post_num,Q_ChoiceSatisfaction,2.5978770088359115,0.09005457509554686,0.07509393598639641,o,"F(2,49)"
post_num,Q_PerceivedSystemEffectiveness,2.8776119402985083,0.07091969430311157,0.03289515129879674,o,"F(2,49)"
post_num,Q_OpennessSimilarRecommendations,2.3101654846335715,0.11556954725585566,0.05443647221355677,o,"F(2,49)"
post_num,Q_UseIntention,1.0653008962868133,0.3565303615077567,0.008743904489658654,o,"F(2,49)"
post_num,Q_ChoiceListeningIntention,1.8010471204188476,0.18146418635865055,0.04247213207280936,o,"F(2,49)"
prof_mean_interactions,time_spent,0.779083993466849,0.04031286687962867,0.28815340838321846,*,r(49)
prof_mean_interactions,Q_Perceived_Popularity,0.38648063622337675,0.30899743503769095,0.14529879063659398,o,r(49)
prof_mean_interactions,Q_PerceivedFairness,0.46643405132666177,0.21952942128136957,0.17493104252021946,o,r(49)
prof_mean_interactions,Q_Discovery,0.11727305612533143,0.7575522688257924,0.04430328273984537,o,r(49)
prof_mean_interactions,Q_Familiarity,0.01621781722609012,0.9659486794044605,0.00612970116168936,o,r(49)
prof_mean_interactions,Q_PerceivedRecommendationQuality,0.9697783613954355,0.010712966940989038,0.3544436835108529,*,r(49)
prof_mean_interactions,Q_RecommendationSatisfaction,0.5766048873708739,0.12907751047488158,0.21536392248973305,o,r(49)
prof_mean_interactions,Q_ChoiceSatisfaction,0.5595713709285907,0.14077265058965077,0.20914631478838544,o,r(49)
prof_mean_interactions,Q_PerceivedSystemEffectiveness,0.6081954271180401,0.10940157954321912,0.2268597407514453,o,r(49)
prof_mean_interactions,Q_OpennessSimilarRecommendations,0.14474172683347974,0.7032015321333263,0.054666312771344545,o,r(49)
prof_mean_interactions,Q_UseIntention,0.49976911867543533,0.188334708218389,0.18721754822506878,o,r(49)
prof_mean_interactions,Q_ChoiceListeningIntention,0.6815359971643006,0.07283143652817656,0.253359153747432,o,r(49)
prof_median_interactions,time_spent,0.9010933914073677,0.017721259709861856,0.3308520048473003,*,r(49)
prof_median_interactions,Q_Perceived_Popularity,0.3192273328436979,0.400740321837036,0.12021826258151412,o,r(49)
prof_median_interactions,Q_PerceivedFairness,0.25716076508539504,0.4984550291658353,0.0969683390513794,o,r(49)
prof_median_interactions,Q_Discovery,-0.10110421862900561,0.7901348052457215,-0.038199854407033544,o,r(49)
prof_median_interactions,Q_Familiarity,0.5041894946343424,0.18445703888749204,0.18884352838333132,o,r(49)
prof_median_interactions,Q_PerceivedRecommendationQuality,0.7439896307825218,0.050205796967084826,0.27569869317630347,o,r(49)
prof_median_interactions,Q_RecommendationSatisfaction,0.4776470833006708,0.20864704856849647,0.17906866375731148,o,r(49)
prof_median_interactions,Q_ChoiceSatisfaction,0.4949191634699132,0.19265805432643596,0.18543265677754942,o,r(49)
prof_median_interactions,Q_PerceivedSystemEffectiveness,0.2043508124352616,0.5906383917697913,0.07712224122773889,o,r(49)
prof_median_interactions,Q_OpennessSimilarRecommendations,0.23007857981652965,0.54475761749109,0.08679727741938072,o,r(49)
prof_median_interactions,Q_UseIntention,0.3556642131314403,0.34916430501358114,0.13382250066740883,o,r(49)
prof_median_interactions,Q_ChoiceListeningIntention,0.7272456968982964,0.05560040637496169,0.26973095501319916,o,r(49)
prof_num_interactions,time_spent,0.9326990042751564,0.01410906933000527,0.3417496957595965,*,r(49)
prof_num_interactions,Q_Perceived_Popularity,0.22260119726133093,0.5579080369044751,0.08398658279800414,o,r(49)
prof_num_interactions,Q_PerceivedFairness,0.16975429640146414,0.6549885584610453,0.06409509506927157,o,r(49)
prof_num_interactions,Q_Discovery,0.9797570163205783,0.00993320980697825,0.3578426398760435,**,r(49)
prof_num_interactions,Q_Familiarity,-0.05831213101676664,0.8780084475250881,-0.022037237517297144,o,r(49)
prof_num_interactions,Q_PerceivedRecommendationQuality,1.0906352356132971,0.004113124591880506,0.3950964239536711,**,r(49)
prof_num_interactions,Q_RecommendationSatisfaction,0.934251188668621,0.013949767312528375,0.34228307284965565,*,r(49)
prof_num_interactions,Q_ChoiceSatisfaction,0.7721918662123816,0.04211332341750861,0.2857132498706074,*,r(49)
prof_num_interactions,Q_PerceivedSystemEffectiveness,1.2014510836653434,0.0015773955237079402,0.4313277102482249,**,r(49)
prof_num_interactions,Q_OpennessSimilarRecommendations,0.4918713814248095,0.19541198012126595,0.18431052932985872,o,r(49)
prof_num_interactions,Q_UseIntention,1.3225734941122635,0.0005065555457883351,0.46968845549373867,***,r(49)
prof_num_interactions,Q_ChoiceListeningIntention,0.7392891682634288,0.05167394528941646,0.274025024629737,o,r(49)
prof_head_ratio,time_spent,0.6422826161119313,0.09091451645762773,0.239210129795196,o,r(49)
prof_head_ratio,Q_Perceived_Popularity,0.4377389657535138,0.24921813654336733,0.16432143777892053,o,r(49)
prof_head_ratio,Q_PerceivedFairness,0.47092929698212016,0.21511878111576432,0.17659036219875024,o,r(49)
prof_head_ratio,Q_Discovery,0.1268341603528871,0.7384819472334698,0.04791127210137098,o,r(49)
prof_head_ratio,Q_Familiarity,0.0024865110317754996,0.9947777129855806,0.0009398126242346911,o,r(49)
prof_head_ratio,Q_PerceivedRecommendationQuality,0.9794781658449098,0.009954293250244921,0.3577477575486408,**,r(49)
prof_head_ratio,Q_RecommendationSatisfaction,0.5530852593805635,0.14543435714562145,0.20677533017257765,o,r(49)
prof_head_ratio,Q_ChoiceSatisfaction,0.5705084309556347,0.1331733667421204,0.21314008778947127,o,r(49)
prof_head_ratio,Q_PerceivedSystemEffectiveness,0.6769041631699828,0.07479853916902941,0.25169380483865333,o,r(49)
prof_head_ratio,Q_OpennessSimilarRecommendations,0.12729731685598744,0.7375621134169321,0.048086026120284564,o,r(49)
prof_head_ratio,Q_UseIntention,0.5620644352061809,0.1390117237157587,0.21005715279894308,o,r(49)
prof_head_ratio,Q_ChoiceListeningIntention,0.6397292939182758,0.0922060095569181,0.23828702061677878,o,r(49)
prof_mid_ratio,time_spent,0.629481161617492,0.09753861692095478,0.2345786859648525,o,r(49)
prof_mid_ratio,Q_Perceived_Popularity,0.5168495124896528,0.17367879441627948,0.1934959880850968,o,r(49)
prof_mid_ratio,Q_PerceivedFairness,0.35710320248361005,0.347217925066006,0.13435901437249273,o,r(49)
prof_mid_ratio,Q_Discovery,-0.02814129265456246,0.9409499220291446,-0.01063610801951029,o,r(49)
prof_mid_ratio,Q_Familiarity,0.6732633436956886,0.07637506144589025,0.25038396668919916,o,r(49)
prof_mid_ratio,Q_PerceivedRecommendationQuality,0.792597690859324,0.03697175116891068,0.29292954067407817,*,r(49)
prof_mid_ratio,Q_RecommendationSatisfaction,0.6126056983189399,0.10685423568282015,0.22846087359413478,o,r(49)
prof_mid_ratio,Q_ChoiceSatisfaction,0.4895776514108822,0.19750351677987338,0.18346578694705867,o,r(49)
prof_mid_ratio,Q_PerceivedSystemEffectiveness,0.1141682103895848,0.7637776328812934,0.043131444529938355,o,r(49)
prof_mid_ratio,Q_OpennessSimilarRecommendations,0.4886904373182607,0.1983169022755322,0.18313898565118014,o,r(49)
prof_mid_ratio,Q_UseIntention,0.25517893733319347,0.5017709454586283,0.09622453494602001,o,r(49)
prof_mid_ratio,Q_ChoiceListeningIntention,0.860693413354544,0.02350239003461267,0.3168215610861506,*,r(49)
prof_tail_ratio,time_spent,-0.6846768899213801,0.07152178047803026,-0.2544877893321583,o,r(49)
prof_tail_ratio,Q_Perceived_Popularity,-0.5269387200365008,0.16543182991003658,-0.19719897615754675,o,r(49)
prof_tail_ratio,Q_PerceivedFairness,-0.4288249651204504,0.2589875850263725,-0.16101965091076761,o,r(49)
prof_tail_ratio,Q_Discovery,-0.029400116029159727,0.9383136351048909,-0.011111856330364558,o,r(49)
prof_tail_ratio,Q_Familiarity,-0.4627466190328969,0.22319563416999771,-0.1735693463781566,o,r(49)
prof_tail_ratio,Q_PerceivedRecommendationQuality,-0.929205414339073,0.014473511249306327,-0.3405485646571848,*,r(49)
prof_tail_ratio,Q_RecommendationSatisfaction,-0.6382505228991752,0.0929607011853463,-0.23775224603013542,o,r(49)
prof_tail_ratio,Q_ChoiceSatisfaction,-0.5593892538355839,0.14090195479204867,-0.20907976768535363,o,r(49)
prof_tail_ratio,Q_PerceivedSystemEffectiveness,-0.3370136363053098,0.37501525077858455,-0.12686353730477873,o,r(49)
prof_tail_ratio,Q_OpennessSimilarRecommendations,-0.3862854630762719,0.30924181211221435,-0.14522619680774587,o,r(49)
prof_tail_ratio,Q_UseIntention,-0.392509998430066,0.3015109427522109,-0.14754080150220245,o,r(49)
prof_tail_ratio,Q_ChoiceListeningIntention,-0.8440930548922574,0.026316174049719334,-0.3110247399232988,*,r(49)
Q_MusicalSophistication,time_spent,-0.4325700948633802,0.2548511917283003,-0.1624071998416496,o,r(49)
Q_MusicalSophistication,choice_mean_interactions,-0.5761747274519419,0.12936326199032383,-0.21520706647771531,o,r(49)
Q_MusicalSophistication,choice_median_interactions,-0.6821172792545361,0.07258758979906688,-0.2535680692404007,o,r(49)
Q_MusicalSophistication,choice_popularity_lift,0.0643933256463701,0.865401946353838,0.02433478540511938,o,r(49)
Q_MusicalSophistication,choice_jensen_shannon,-0.017535133656470046,0.9631846998389183,-0.006627584770649738,o,r(49)
Q_MusicalSophistication,choice_head_ratio,-0.8703000979417159,0.021996480776105436,-0.32016785387748825,*,r(49)
Q_MusicalSophistication,choice_mid_ratio,-0.16967511744428573,0.6551390622792975,-0.06406526051270271,o,r(49)
Q_MusicalSophistication,choice_tail_ratio,0.4423193105864018,0.24429970545431998,0.1660169390854728,o,r(49)
Q_MusicalSophistication,Q_Perceived_Popularity,-0.36907763332297383,0.331289877170188,-0.13882124152485004,o,r(49)
Q_MusicalSophistication,Q_PerceivedFairness,-0.3900378825202145,0.304565765294613,-0.14662168576753098,o,r(49)
Q_MusicalSophistication,Q_Discovery,0.758526281175032,0.04588505585734256,0.2808665106614229,*,r(49)
Q_MusicalSophistication,Q_Familiarity,0.0855916376178062,0.8217444005244763,0.03234213509353642,o,r(49)
Q_MusicalSophistication,Q_PerceivedRecommendationQuality,-0.04096801229772673,0.9141229190189865,-0.015483525035949774,o,r(49)
Q_MusicalSophistication,Q_RecommendationSatisfaction,0.21834282144964884,0.5654656016791312,0.08238543846783793,o,r(49)
Q_MusicalSophistication,Q_ChoiceSatisfaction,0.21758260413452346,0.5668199564219172,0.08209956382858694,o,r(49)
Q_MusicalSophistication,Q_PerceivedSystemEffectiveness,0.5039826930514372,0.1846371224200562,0.1887674764659962,o,r(49)
Q_MusicalSophistication,Q_OpennessSimilarRecommendations,0.23506074815363232,0.5360818201925213,0.0886694643870469,o,r(49)
Q_MusicalSophistication,Q_UseIntention,0.6811656381343614,0.07298715096449467,0.2532260355351886,o,r(49)
Q_MusicalSophistication,Q_ChoiceListeningIntention,0.19655467637031077,0.6048843632742678,0.074188250948179,o,r(49)
Q_MusicalEngagement,time_spent,-0.027636201854320187,0.9420078903991913,-0.0104452175503972,o,r(49)
Q_MusicalEngagement,choice_mean_interactions,-0.7627238815557739,0.04469732699252763,-0.28235644898288936,*,r(49)
Q_MusicalEngagement,choice_median_interactions,-1.0472365448307017,0.005861916174464053,-0.38062969471038915,**,r(49)
Q_MusicalEngagement,choice_popularity_lift,-0.37764152420737335,0.3201930190584648,-0.14200994421141924,o,r(49)
Q_MusicalEngagement,choice_jensen_shannon,-0.003082261203360901,0.9935265153517743,-0.0011649848361284082,o,r(49)
Q_MusicalEngagement,choice_head_ratio,-1.0608328892285859,0.005252756537627217,-0.3851781861261583,**,r(49)
Q_MusicalEngagement,choice_mid_ratio,0.024343436422863192,0.9489073746555199,0.009200759388288113,o,r(49)
Q_MusicalEngagement,choice_tail_ratio,0.32258269570458464,0.3958078268271957,0.12147252065097452,o,r(49)
Q_MusicalEngagement,Q_Perceived_Popularity,-0.5031769824958737,0.18533997934111487,-0.18847115754723986,o,r(49)
Q_MusicalEngagement,Q_PerceivedFairness,0.42711096170919616,0.26089608940294956,0.16038446161397726,o,r(49)
Q_MusicalEngagement,Q_Discovery,0.7331191829732704,0.053655491850843555,0.27182617206779364,o,r(49)
Q_MusicalEngagement,Q_Familiarity,0.14900035982051396,0.694901360672677,0.0562722067567457,o,r(49)
Q_MusicalEngagement,Q_PerceivedRecommendationQuality,0.6563333759961868,0.08406574270757311,0.2442839893224395,o,r(49)
Q_MusicalEngagement,Q_RecommendationSatisfaction,0.7159295731789089,0.05951337783068184,0.26568868648190264,o,r(49)
Q_MusicalEngagement,Q_ChoiceSatisfaction,0.7731145617868592,0.04186840484763877,0.2860400967333119,*,r(49)
Q_MusicalEngagement,Q_PerceivedSystemEffectiveness,0.565604165444131,0.1365407167076095,0.21134991195727715,o,r(49)
Q_MusicalEngagement,Q_OpennessSimilarRecommendations,0.4191410947552421,0.2698980175271496,0.15742960970067538,o,r(49)
Q_MusicalEngagement,Q_UseIntention,0.6795052250026966,0.07368861160848998,0.2526291426423027,o,r(49)
Q_MusicalEngagement,Q_ChoiceListeningIntention,0.712076100541591,0.06089696856556118,0.26431052880100375,o,r(49)
