factor1,factor2,statistic,p,effect_size,p<.05,Statistic_symbol
condition,time_spent,3.8458958623086086,0.03185579091266276,0.12611783426980872,*,"F(2,49)"
condition,rec_mean_interactions,170.05465518175322,8.946868832266382e-18,0.7744730534249279,***,"F(2,49)"
condition,rec_median_interactions,84.32688850943731,1.7508229358844177e-13,0.7139648772389284,***,"F(2,49)"
condition,rec_popularity_lift,112.83441457313452,3.201912862709373e-15,0.696147305123746,***,"F(2,49)"
condition,rec_jensen_shannon,109.02746137952553,5.174079678267726e-15,0.849407444265904,***,"F(2,49)"
condition,rec_head_ratio,32.98305084745763,1.679524813967004e-08,0.5121052631578947,***,"F(2,49)"
condition,rec_mid_ratio,737.5205348615095,1.7076475837374616e-27,0.9529653361240831,***,"F(2,49)"
condition,rec_tail_ratio,755.3023663453114,1.1757773834574034e-27,0.9565267578870725,***,"F(2,49)"
condition,Q_Perceived_Popularity,8.786161945349713,0.0009090153056860211,0.16479837496238336,***,"F(2,49)"
condition,Q_PerceivedFairness,0.8069472277889114,0.45509109718425855,0.020839083632348886,o,"F(2,49)"
condition,Q_Discovery,1.6223557879946917,0.2132535546434488,0.02854882310278894,o,"F(2,49)"
condition,Q_Familiarity,2.794625719769672,0.07609932742897661,0.07851596203623812,o,"F(2,49)"
condition,Q_PerceivedRecommendationQuality,0.3141316073354908,0.7326496373000531,0.007077227326763475,o,"F(2,49)"
condition,Q_RecommendationSatisfaction,0.42507934506168965,0.6573552009335465,0.010859573005713306,o,"F(2,49)"
condition,Q_ChoiceSatisfaction,0.7061392995072575,0.5010743239915092,0.022722909410054573,o,"F(2,49)"
condition,Q_PerceivedSystemEffectiveness,0.23780367371123862,0.7897381964851811,0.003160370424812583,o,"F(2,49)"
condition,Q_OpennessSimilarRecommendations,1.2893576650482736,0.2893729849424431,0.03217612193056733,o,"F(2,49)"
condition,Q_UseIntention,2.2575342465753403,0.12101682077344225,0.017319656969900787,o,"F(2,49)"
condition,Q_ChoiceListeningIntention,2.4639255236617505,0.10109625949720574,0.05601806123888807,o,"F(2,49)"
post_num,time_spent,7.046534439260423,0.0029122567610992967,0.1989846805209275,**,"F(2,49)"
post_num,choice_mean_interactions,5.56597298428311,0.008425871143076332,0.13790697432382468,**,"F(2,49)"
post_num,choice_median_interactions,6.627939464524019,0.0039048071595872234,0.18759541778921113,**,"F(2,49)"
post_num,choice_popularity_lift,5.3675624111177695,0.009768773144921077,0.13529405518836782,**,"F(2,49)"
post_num,choice_jensen_shannon,0.18930104639897236,0.8284573174124409,0.00927968878076831,o,"F(2,49)"
post_num,choice_head_ratio,4.606060606060612,0.017458227850152105,0.1098265895953758,*,"F(2,49)"
post_num,choice_mid_ratio,4.460176991150443,0.019560031157796746,0.2011173184357542,*,"F(2,49)"
post_num,choice_tail_ratio,5.146744412050534,0.011535155735312958,0.21733420879842416,*,"F(2,49)"
post_num,Q_Perceived_Popularity,1.9441016333938292,0.15965120339771266,0.05036864279265723,o,"F(2,49)"
post_num,Q_PerceivedFairness,0.2217923920051582,0.8023027838683867,0.005934308584046374,o,"F(2,49)"
post_num,Q_Discovery,3.8226358767231545,0.032459159288303494,0.05980088349706599,*,"F(2,49)"
post_num,Q_Familiarity,0.9249087766468217,0.406909976091281,0.02885629373981402,o,"F(2,49)"
post_num,Q_PerceivedRecommendationQuality,4.451759978362503,0.019689229770056844,0.08000488850867155,*,"F(2,49)"
post_num,Q_RecommendationSatisfaction,2.600780729315434,0.0898299072106513,0.05867090510760773,o,"F(2,49)"
post_num,Q_ChoiceSatisfaction,2.5978770088359115,0.09005457509554686,0.07509393598639641,o,"F(2,49)"
post_num,Q_PerceivedSystemEffectiveness,2.8776119402985083,0.07091969430311157,0.03289515129879674,o,"F(2,49)"
post_num,Q_OpennessSimilarRecommendations,2.3101654846335715,0.11556954725585566,0.05443647221355677,o,"F(2,49)"
post_num,Q_UseIntention,1.0653008962868133,0.3565303615077567,0.008743904489658654,o,"F(2,49)"
post_num,Q_ChoiceListeningIntention,1.8010471204188476,0.18146418635865055,0.04247213207280936,o,"F(2,49)"
rec_mean_interactions,Q_Perceived_Popularity,1.1355023530506374,0.002816380522154984,0.40989106863144903,**,r(49)
rec_mean_interactions,Q_PerceivedFairness,-0.15613766083218972,0.6810726927684388,-0.05896312849597073,o,r(49)
rec_mean_interactions,Q_Discovery,-0.36720554086671786,0.3337484246315872,-0.13812389013499432,o,r(49)
rec_mean_interactions,Q_Familiarity,0.572614581258652,0.13174713727110507,0.21390854988929622,o,r(49)
rec_mean_interactions,Q_PerceivedRecommendationQuality,-0.005619006747888114,0.9881990446619573,-0.0021237825294891585,o,r(49)
rec_mean_interactions,Q_RecommendationSatisfaction,0.02157320153823513,0.9547149663148763,0.008153768221237706,o,r(49)
rec_mean_interactions,Q_ChoiceSatisfaction,-0.32560364322762597,0.39139846010165175,-0.12260152195467833,o,r(49)
rec_mean_interactions,Q_PerceivedSystemEffectiveness,0.09756437044144167,0.7973195436263425,0.03686333176759169,o,r(49)
rec_mean_interactions,Q_OpennessSimilarRecommendations,-0.559399311299062,0.14089481155207698,-0.2090834428047571,o,r(49)
rec_mean_interactions,Q_UseIntention,-0.09831367483018291,0.7957972440696729,-0.03714625122672373,o,r(49)
rec_mean_interactions,Q_ChoiceListeningIntention,-0.4794534066912808,0.20693121251377042,-0.1797347533462706,o,r(49)
rec_median_interactions,time_spent,-0.5862428787495533,0.12280285617663449,-0.21887614444420106,o,r(49)
rec_median_interactions,Q_Perceived_Popularity,1.1919387188495647,0.001717854968068452,0.4282589872317926,**,r(49)
rec_median_interactions,Q_PerceivedFairness,-0.28048974513765385,0.46031310229483324,-0.10571769661110975,o,r(49)
rec_median_interactions,Q_Discovery,-0.4904183458848232,0.19673503565599873,-0.1837754245707883,o,r(49)
rec_median_interactions,Q_Familiarity,0.7750219583228715,0.04136593204547324,0.286715591855411,*,r(49)
rec_median_interactions,Q_PerceivedRecommendationQuality,-0.0726208587918845,0.8484009722631115,-0.027442935269860885,o,r(49)
rec_median_interactions,Q_RecommendationSatisfaction,-0.11057108788083053,0.7710091519979223,-0.0417736988447648,o,r(49)
rec_median_interactions,Q_ChoiceSatisfaction,-0.39092343631324733,0.3034691223523601,-0.14695095064271876,o,r(49)
rec_median_interactions,Q_PerceivedSystemEffectiveness,-0.012841838060256155,0.9730339126183429,-0.004853729967608136,o,r(49)
rec_median_interactions,Q_OpennessSimilarRecommendations,-0.6161680164160837,0.10483118551705123,-0.22975347205781582,o,r(49)
rec_median_interactions,Q_UseIntention,-0.1953838974255409,0.607036982071633,-0.0737475568336599,o,r(49)
rec_median_interactions,Q_ChoiceListeningIntention,-0.5043216747576407,0.1843420041225229,-0.1888921371289787,o,r(49)
rec_popularity_lift,time_spent,-0.6877884358330614,0.07024346255594204,-0.2556053556916452,o,r(49)
rec_popularity_lift,Q_Perceived_Popularity,0.5966708105386812,0.11628511336345215,0.22267136645787824,o,r(49)
rec_popularity_lift,Q_PerceivedFairness,-0.6928403474390086,0.0682079745944307,-0.25741872225329504,o,r(49)
rec_popularity_lift,Q_Discovery,-0.4062872030334313,0.28486094635132425,-0.15265951301582228,o,r(49)
rec_popularity_lift,Q_Familiarity,0.3082198375818609,0.41717907936265236,0.11610156868465292,o,r(49)
rec_popularity_lift,Q_PerceivedRecommendationQuality,-0.7490564378937408,0.04866256767061945,-0.2775013639024493,*,r(49)
rec_popularity_lift,Q_RecommendationSatisfaction,-0.5179182655353243,0.17279090888580306,-0.19388844671035388,o,r(49)
rec_popularity_lift,Q_ChoiceSatisfaction,-0.799766103889326,0.03529728877782371,-0.29545850401812696,*,r(49)
rec_popularity_lift,Q_PerceivedSystemEffectiveness,-0.39346876817853366,0.30033168976418734,-0.14789721378106102,o,r(49)
rec_popularity_lift,Q_OpennessSimilarRecommendations,-0.696779771737669,0.06665461180851225,-0.25883180131552835,o,r(49)
rec_popularity_lift,Q_UseIntention,-0.4993771914882151,0.18868139846246615,-0.18707334500637324,o,r(49)
rec_popularity_lift,Q_ChoiceListeningIntention,-1.0345770627816726,0.0064856769682766985,-0.3763815088844161,**,r(49)
rec_jensen_shannon,time_spent,0.15611047547527113,0.6811251657306401,0.058952880211598314,o,r(49)
rec_jensen_shannon,Q_Perceived_Popularity,0.04033972028634522,0.9154349628903359,0.015246095027042472,o,r(49)
rec_jensen_shannon,Q_PerceivedFairness,-0.24448647750626595,0.5198606813661398,-0.09221014525808938,o,r(49)
rec_jensen_shannon,Q_Discovery,0.16200551164759003,0.6697831012091313,0.06117495866830412,o,r(49)
rec_jensen_shannon,Q_Familiarity,-0.04671685465996653,0.902129090708313,-0.017655935103868124,o,r(49)
rec_jensen_shannon,Q_PerceivedRecommendationQuality,-0.07844425742089164,0.8364097816121374,-0.029642627202733942,o,r(49)
rec_jensen_shannon,Q_RecommendationSatisfaction,-0.3142577535878519,0.40811325024456996,-0.1183600684755553,o,r(49)
rec_jensen_shannon,Q_ChoiceSatisfaction,-0.17900797739617985,0.637497025087368,-0.0675812700472456,o,r(49)
rec_jensen_shannon,Q_PerceivedSystemEffectiveness,0.028868368665206492,0.9394271645710454,0.010910892996149333,o,r(49)
rec_jensen_shannon,Q_OpennessSimilarRecommendations,0.15069609532731523,0.6916064209253738,0.05691159358055422,o,r(49)
rec_jensen_shannon,Q_UseIntention,-0.05865117190591268,0.8773047599487204,-0.02216533597537922,o,r(49)
rec_jensen_shannon,Q_ChoiceListeningIntention,-0.18949167809524267,0.6179220668319889,-0.07152933455688727,o,r(49)
rec_head_ratio,time_spent,-0.6397799720133988,0.09218023347676871,-0.23830534560703032,o,r(49)
rec_head_ratio,Q_Perceived_Popularity,0.44787768656658705,0.23842312392169035,0.16807347889425256,o,r(49)
rec_head_ratio,Q_PerceivedFairness,0.13878464251201067,0.714871425446473,0.052419592480148346,o,r(49)
rec_head_ratio,Q_Discovery,-0.3788258193952545,0.3186777953465264,-0.1424507340201492,o,r(49)
rec_head_ratio,Q_Familiarity,0.13287198468866523,0.7265205854622062,0.05018923365954729,o,r(49)
rec_head_ratio,Q_PerceivedRecommendationQuality,0.09147497467985775,0.8097189776730398,0.034563959775308656,o,r(49)
rec_head_ratio,Q_RecommendationSatisfaction,0.07945558714639754,0.8343310987088983,0.03002461867712017,o,r(49)
rec_head_ratio,Q_ChoiceSatisfaction,-0.12842064277872195,0.7353327389444186,-0.0485098600942917,o,r(49)
rec_head_ratio,Q_PerceivedSystemEffectiveness,0.16852807333387881,0.6573209393479512,0.06363304574331524,o,r(49)
rec_head_ratio,Q_OpennessSimilarRecommendations,-0.4474374664058445,0.23888487445277987,-0.16791064232617808,o,r(49)
rec_head_ratio,Q_UseIntention,0.06067377093127203,0.8731088397422392,0.022929514994080493,o,r(49)
rec_head_ratio,Q_ChoiceListeningIntention,-0.23696587242490808,0.5327827766058827,-0.08938524335249858,o,r(49)
rec_mid_ratio,time_spent,-0.38207762491363645,0.31454152278083986,-0.14366082290840726,o,r(49)
rec_mid_ratio,Q_Perceived_Popularity,1.0689445964697382,0.004917193297615147,0.3878848499057275,**,r(49)
rec_mid_ratio,Q_PerceivedFairness,-0.3432563255042942,0.36623371067864174,-0.12919390503388103,o,r(49)
rec_mid_ratio,Q_Discovery,-0.3444364732211963,0.3645881402532684,-0.1296343285330395,o,r(49)
rec_mid_ratio,Q_Familiarity,0.7924904380477705,0.03699730958016017,0.2928916785382691,*,r(49)
rec_mid_ratio,Q_PerceivedRecommendationQuality,-0.06462898788471036,0.8649140786448477,-0.02442381764695364,o,r(49)
rec_mid_ratio,Q_RecommendationSatisfaction,-0.03045996552602226,0.936094571533705,-0.01151240333598853,o,r(49)
rec_mid_ratio,Q_ChoiceSatisfaction,-0.2685534135661892,0.4796215002935863,-0.10124253921683792,o,r(49)
rec_mid_ratio,Q_PerceivedSystemEffectiveness,-0.11761350987254328,0.7568705903022294,-0.04443177207481024,o,r(49)
rec_mid_ratio,Q_OpennessSimilarRecommendations,-0.41522173892581166,0.2744021850227187,-0.15597571182729492,o,r(49)
rec_mid_ratio,Q_UseIntention,-0.28566812513441087,0.4520736817778694,-0.10765817564463138,o,r(49)
rec_mid_ratio,Q_ChoiceListeningIntention,-0.4650912197042317,0.22085948735892358,-0.17443521972365889,o,r(49)
rec_tail_ratio,time_spent,0.4454979696909876,0.24092674232114403,0.1671931437931846,o,r(49)
rec_tail_ratio,Q_Perceived_Popularity,-1.0743332080700734,0.004705139880624889,-0.3896799718977236,**,r(49)
rec_tail_ratio,Q_PerceivedFairness,0.30717853686602264,0.41875449290027295,0.1157119751919577,o,r(49)
rec_tail_ratio,Q_Discovery,0.3761126873308222,0.3221560147676332,0.1414408545285279,o,r(49)
rec_tail_ratio,Q_Familiarity,-0.7681526239779166,0.043199818845562225,-0.28428182449706746,*,r(49)
rec_tail_ratio,Q_PerceivedRecommendationQuality,0.04940795739054099,0.8965221315750087,0.018672824538915826,o,r(49)
rec_tail_ratio,Q_RecommendationSatisfaction,0.01856792600193437,0.9610180134032508,0.007017929952920457,o,r(49)
rec_tail_ratio,Q_ChoiceSatisfaction,0.2714101096876321,0.4749606313475298,0.10231385482188494,o,r(49)
rec_tail_ratio,Q_PerceivedSystemEffectiveness,0.08964153777692627,0.8134618126432572,0.03387159452099248,o,r(49)
rec_tail_ratio,Q_OpennessSimilarRecommendations,0.4523531319497805,0.23376453635860883,0.1697285419660114,o,r(49)
rec_tail_ratio,Q_UseIntention,0.2628923882831638,0.48893106258780633,0.09911902628127008,o,r(49)
rec_tail_ratio,Q_ChoiceListeningIntention,0.47213446599462955,0.2139472271408674,0.1770350944960098,o,r(49)
prof_mean_interactions,time_spent,0.779083993466849,0.04031286687962867,0.28815340838321846,*,r(49)
prof_mean_interactions,Q_Perceived_Popularity,0.38648063622337675,0.30899743503769095,0.14529879063659398,o,r(49)
prof_mean_interactions,Q_PerceivedFairness,0.46643405132666177,0.21952942128136957,0.17493104252021946,o,r(49)
prof_mean_interactions,Q_Discovery,0.11727305612533143,0.7575522688257924,0.04430328273984537,o,r(49)
prof_mean_interactions,Q_Familiarity,0.01621781722609012,0.9659486794044605,0.00612970116168936,o,r(49)
prof_mean_interactions,Q_PerceivedRecommendationQuality,0.9697783613954355,0.010712966940989038,0.3544436835108529,*,r(49)
prof_mean_interactions,Q_RecommendationSatisfaction,0.5766048873708739,0.12907751047488158,0.21536392248973305,o,r(49)
prof_mean_interactions,Q_ChoiceSatisfaction,0.5595713709285907,0.14077265058965077,0.20914631478838544,o,r(49)
prof_mean_interactions,Q_PerceivedSystemEffectiveness,0.6081954271180401,0.10940157954321912,0.2268597407514453,o,r(49)
prof_mean_interactions,Q_OpennessSimilarRecommendations,0.14474172683347974,0.7032015321333263,0.054666312771344545,o,r(49)
prof_mean_interactions,Q_UseIntention,0.49976911867543533,0.188334708218389,0.18721754822506878,o,r(49)
prof_mean_interactions,Q_ChoiceListeningIntention,0.6815359971643006,0.07283143652817656,0.253359153747432,o,r(49)
prof_median_interactions,time_spent,0.9010933914073677,0.017721259709861856,0.3308520048473003,*,r(49)
prof_median_interactions,Q_Perceived_Popularity,0.3192273328436979,0.400740321837036,0.12021826258151412,o,r(49)
prof_median_interactions,Q_PerceivedFairness,0.25716076508539504,0.4984550291658353,0.0969683390513794,o,r(49)
prof_median_interactions,Q_Discovery,-0.10110421862900561,0.7901348052457215,-0.038199854407033544,o,r(49)
prof_median_interactions,Q_Familiarity,0.5041894946343424,0.18445703888749204,0.18884352838333132,o,r(49)
prof_median_interactions,Q_PerceivedRecommendationQuality,0.7439896307825218,0.050205796967084826,0.27569869317630347,o,r(49)
prof_median_interactions,Q_RecommendationSatisfaction,0.4776470833006708,0.20864704856849647,0.17906866375731148,o,r(49)
prof_median_interactions,Q_ChoiceSatisfaction,0.4949191634699132,0.19265805432643596,0.18543265677754942,o,r(49)
prof_median_interactions,Q_PerceivedSystemEffectiveness,0.2043508124352616,0.5906383917697913,0.07712224122773889,o,r(49)
prof_median_interactions,Q_OpennessSimilarRecommendations,0.23007857981652965,0.54475761749109,0.08679727741938072,o,r(49)
prof_median_interactions,Q_UseIntention,0.3556642131314403,0.34916430501358114,0.13382250066740883,o,r(49)
prof_median_interactions,Q_ChoiceListeningIntention,0.7272456968982964,0.05560040637496169,0.26973095501319916,o,r(49)
prof_num_interactions,time_spent,0.9326990042751564,0.01410906933000527,0.3417496957595965,*,r(49)
prof_num_interactions,Q_Perceived_Popularity,0.22260119726133093,0.5579080369044751,0.08398658279800414,o,r(49)
prof_num_interactions,Q_PerceivedFairness,0.16975429640146414,0.6549885584610453,0.06409509506927157,o,r(49)
prof_num_interactions,Q_Discovery,0.9797570163205783,0.00993320980697825,0.3578426398760435,**,r(49)
prof_num_interactions,Q_Familiarity,-0.05831213101676664,0.8780084475250881,-0.022037237517297144,o,r(49)
prof_num_interactions,Q_PerceivedRecommendationQuality,1.0906352356132971,0.004113124591880506,0.3950964239536711,**,r(49)
prof_num_interactions,Q_RecommendationSatisfaction,0.934251188668621,0.013949767312528375,0.34228307284965565,*,r(49)
prof_num_interactions,Q_ChoiceSatisfaction,0.7721918662123816,0.04211332341750861,0.2857132498706074,*,r(49)
prof_num_interactions,Q_PerceivedSystemEffectiveness,1.2014510836653434,0.0015773955237079402,0.4313277102482249,**,r(49)
prof_num_interactions,Q_OpennessSimilarRecommendations,0.4918713814248095,0.19541198012126595,0.18431052932985872,o,r(49)
prof_num_interactions,Q_UseIntention,1.3225734941122635,0.0005065555457883351,0.46968845549373867,***,r(49)
prof_num_interactions,Q_ChoiceListeningIntention,0.7392891682634288,0.05167394528941646,0.274025024629737,o,r(49)
prof_head_ratio,time_spent,0.6422826161119313,0.09091451645762773,0.239210129795196,o,r(49)
prof_head_ratio,Q_Perceived_Popularity,0.4377389657535138,0.24921813654336733,0.16432143777892053,o,r(49)
prof_head_ratio,Q_PerceivedFairness,0.47092929698212016,0.21511878111576432,0.17659036219875024,o,r(49)
prof_head_ratio,Q_Discovery,0.1268341603528871,0.7384819472334698,0.04791127210137098,o,r(49)
prof_head_ratio,Q_Familiarity,0.0024865110317754996,0.9947777129855806,0.0009398126242346911,o,r(49)
prof_head_ratio,Q_PerceivedRecommendationQuality,0.9794781658449098,0.009954293250244921,0.3577477575486408,**,r(49)
prof_head_ratio,Q_RecommendationSatisfaction,0.5530852593805635,0.14543435714562145,0.20677533017257765,o,r(49)
prof_head_ratio,Q_ChoiceSatisfaction,0.5705084309556347,0.1331733667421204,0.21314008778947127,o,r(49)
prof_head_ratio,Q_PerceivedSystemEffectiveness,0.6769041631699828,0.07479853916902941,0.25169380483865333,o,r(49)
prof_head_ratio,Q_OpennessSimilarRecommendations,0.12729731685598744,0.7375621134169321,0.048086026120284564,o,r(49)
prof_head_ratio,Q_UseIntention,0.5620644352061809,0.1390117237157587,0.21005715279894308,o,r(49)
prof_head_ratio,Q_ChoiceListeningIntention,0.6397292939182758,0.0922060095569181,0.23828702061677878,o,r(49)
prof_mid_ratio,time_spent,0.629481161617492,0.09753861692095478,0.2345786859648525,o,r(49)
prof_mid_ratio,Q_Perceived_Popularity,0.5168495124896528,0.17367879441627948,0.1934959880850968,o,r(49)
prof_mid_ratio,Q_PerceivedFairness,0.35710320248361005,0.347217925066006,0.13435901437249273,o,r(49)
prof_mid_ratio,Q_Discovery,-0.02814129265456246,0.9409499220291446,-0.01063610801951029,o,r(49)
prof_mid_ratio,Q_Familiarity,0.6732633436956886,0.07637506144589025,0.25038396668919916,o,r(49)
prof_mid_ratio,Q_PerceivedRecommendationQuality,0.792597690859324,0.03697175116891068,0.29292954067407817,*,r(49)
prof_mid_ratio,Q_RecommendationSatisfaction,0.6126056983189399,0.10685423568282015,0.22846087359413478,o,r(49)
prof_mid_ratio,Q_ChoiceSatisfaction,0.4895776514108822,0.19750351677987338,0.18346578694705867,o,r(49)
prof_mid_ratio,Q_PerceivedSystemEffectiveness,0.1141682103895848,0.7637776328812934,0.043131444529938355,o,r(49)
prof_mid_ratio,Q_OpennessSimilarRecommendations,0.4886904373182607,0.1983169022755322,0.18313898565118014,o,r(49)
prof_mid_ratio,Q_UseIntention,0.25517893733319347,0.5017709454586283,0.09622453494602001,o,r(49)
prof_mid_ratio,Q_ChoiceListeningIntention,0.860693413354544,0.02350239003461267,0.3168215610861506,*,r(49)
prof_tail_ratio,time_spent,-0.6846768899213801,0.07152178047803026,-0.2544877893321583,o,r(49)
prof_tail_ratio,Q_Perceived_Popularity,-0.5269387200365008,0.16543182991003658,-0.19719897615754675,o,r(49)
prof_tail_ratio,Q_PerceivedFairness,-0.4288249651204504,0.2589875850263725,-0.16101965091076761,o,r(49)
prof_tail_ratio,Q_Discovery,-0.029400116029159727,0.9383136351048909,-0.011111856330364558,o,r(49)
prof_tail_ratio,Q_Familiarity,-0.4627466190328969,0.22319563416999771,-0.1735693463781566,o,r(49)
prof_tail_ratio,Q_PerceivedRecommendationQuality,-0.929205414339073,0.014473511249306327,-0.3405485646571848,*,r(49)
prof_tail_ratio,Q_RecommendationSatisfaction,-0.6382505228991752,0.0929607011853463,-0.23775224603013542,o,r(49)
prof_tail_ratio,Q_ChoiceSatisfaction,-0.5593892538355839,0.14090195479204867,-0.20907976768535363,o,r(49)
prof_tail_ratio,Q_PerceivedSystemEffectiveness,-0.3370136363053098,0.37501525077858455,-0.12686353730477873,o,r(49)
prof_tail_ratio,Q_OpennessSimilarRecommendations,-0.3862854630762719,0.30924181211221435,-0.14522619680774587,o,r(49)
prof_tail_ratio,Q_UseIntention,-0.392509998430066,0.3015109427522109,-0.14754080150220245,o,r(49)
prof_tail_ratio,Q_ChoiceListeningIntention,-0.8440930548922574,0.026316174049719334,-0.3110247399232988,*,r(49)
time_spent,Q_RecommendationSatisfaction,0.5628666490299128,0.13844871896046013,0.2103501816907104,o,r(49)
time_spent,Q_ChoiceSatisfaction,0.41720501048627384,0.2721166086892341,0.15671147709484995,o,r(49)
time_spent,Q_PerceivedSystemEffectiveness,0.41439849292498787,0.27535475719161184,0.155670260902151,o,r(49)
time_spent,Q_OpennessSimilarRecommendations,0.1977363620844492,0.6027151687987539,0.07463302841466433,o,r(49)
time_spent,Q_UseIntention,0.5170499802367642,0.17351199299387896,0.19356960577476073,o,r(49)
time_spent,Q_ChoiceListeningIntention,0.5337328303972018,0.1600466899153555,0.1996901806615276,o,r(49)
choice_mean_interactions,time_spent,-0.5638655540203417,0.13775013206112327,-0.21071501678370358,o,r(49)
choice_mean_interactions,Q_RecommendationSatisfaction,-0.544025894084926,0.15214226264625447,-0.20346060699585566,o,r(49)
choice_mean_interactions,Q_ChoiceSatisfaction,-0.869097136676604,0.022180330660899514,-0.31974916494992894,*,r(49)
choice_mean_interactions,Q_PerceivedSystemEffectiveness,-0.25946009000748366,0.49462254063149547,-0.09783120156413262,o,r(49)
choice_mean_interactions,Q_OpennessSimilarRecommendations,-1.040330056641367,0.0061951573631443425,-0.37831361937094665,**,r(49)
choice_mean_interactions,Q_UseIntention,-0.37413452883360226,0.3247075613327406,-0.14070440598028836,o,r(49)
choice_mean_interactions,Q_ChoiceListeningIntention,-0.8607176694448053,0.023498477691695992,-0.31683001795219834,*,r(49)
choice_median_interactions,time_spent,-0.5147402725627317,0.1754410807116804,-0.19272131256524933,o,r(49)
choice_median_interactions,Q_RecommendationSatisfaction,-0.30005993432099665,0.42961784442861256,-0.11304789893291801,o,r(49)
choice_median_interactions,Q_ChoiceSatisfaction,-0.5152103437413262,0.17504718164787797,-0.1928939747725923,o,r(49)
choice_median_interactions,Q_PerceivedSystemEffectiveness,-0.051110340205110884,0.8929778361140945,-0.019316090617473688,o,r(49)
choice_median_interactions,Q_OpennessSimilarRecommendations,-0.6326056219760701,0.09588729358349952,-0.2357098439055591,o,r(49)
choice_median_interactions,Q_UseIntention,-0.1830833759056402,0.6298564454124967,-0.069116221412542,o,r(49)
choice_median_interactions,Q_ChoiceListeningIntention,-0.5565813389845081,0.14290717018265925,-0.20805354591934996,o,r(49)
choice_popularity_lift,time_spent,-0.6472091690959624,0.08846377267326372,-0.24099030392365473,o,r(49)
choice_popularity_lift,Q_RecommendationSatisfaction,-0.8412108766610878,0.02683329826470643,-0.310016444582896,*,r(49)
choice_popularity_lift,Q_ChoiceSatisfaction,-1.207506289748951,0.0014935845215228887,-0.43327698974417994,**,r(49)
choice_popularity_lift,Q_PerceivedSystemEffectiveness,-0.5102330191592556,0.1792515919244462,-0.19106529088297539,o,r(49)
choice_popularity_lift,Q_OpennessSimilarRecommendations,-1.127186322717132,0.0030240760138574335,-0.4071615603372483,**,r(49)
choice_popularity_lift,Q_UseIntention,-0.5846002122842531,0.12385510385298043,-0.21827783667078424,o,r(49)
choice_popularity_lift,Q_ChoiceListeningIntention,-1.2524426030776703,0.0009888706047044404,-0.44764057154320375,***,r(49)
choice_jensen_shannon,time_spent,-0.07725746653117659,0.838850563155378,-0.02919435364568811,o,r(49)
choice_jensen_shannon,Q_RecommendationSatisfaction,-0.08525776420205723,0.8224281171820765,-0.03221604144755782,o,r(49)
choice_jensen_shannon,Q_ChoiceSatisfaction,-0.05734301701069242,0.8800203968219873,-0.02167107808053526,o,r(49)
choice_jensen_shannon,Q_PerceivedSystemEffectiveness,-0.16552221387206142,0.6630524376908271,-0.06250033075868079,o,r(49)
choice_jensen_shannon,Q_OpennessSimilarRecommendations,0.3720206330706077,0.32744869057279247,0.13991729387052362,o,r(49)
choice_jensen_shannon,Q_UseIntention,-0.357864121923747,0.3461915001413962,-0.13464269205328858,o,r(49)
choice_jensen_shannon,Q_ChoiceListeningIntention,0.20965807948539114,0.5810295726784208,0.07911900121233024,o,r(49)
choice_head_ratio,time_spent,-0.5725448815947843,0.1317941458264469,-0.21388312209120897,o,r(49)
choice_head_ratio,Q_RecommendationSatisfaction,-0.5086503210775367,0.18060413211166587,-0.19048359129558842,o,r(49)
choice_head_ratio,Q_ChoiceSatisfaction,-0.6875747857374384,0.07033063265657603,-0.2555286362248543,o,r(49)
choice_head_ratio,Q_PerceivedSystemEffectiveness,-0.3315147319893678,0.3828573591512584,-0.12480994531185097,o,r(49)
choice_head_ratio,Q_OpennessSimilarRecommendations,-0.5536927661202847,0.14499277235674468,-0.20699748182316124,o,r(49)
choice_head_ratio,Q_UseIntention,-0.3656154489100084,0.33584585211216844,-0.13753150225042365,o,r(49)
choice_head_ratio,Q_ChoiceListeningIntention,-0.7847817015568573,0.03887415763907452,-0.29016850579802045,*,r(49)
choice_mid_ratio,time_spent,-0.2636554131286333,0.487670616818873,-0.09940528524820931,o,r(49)
choice_mid_ratio,Q_RecommendationSatisfaction,0.05768490071487387,0.8793105329295741,0.0218002521817699,o,r(49)
choice_mid_ratio,Q_ChoiceSatisfaction,-0.14801297790547285,0.6968225800215299,-0.0558998927383726,o,r(49)
choice_mid_ratio,Q_PerceivedSystemEffectiveness,-0.04216125125839064,0.9116317599736914,-0.01593444348809461,o,r(49)
choice_mid_ratio,Q_OpennessSimilarRecommendations,-0.17864679489592108,0.6381760498940758,-0.0674452231929327,o,r(49)
choice_mid_ratio,Q_UseIntention,-0.17999936207899847,0.6356347816588845,-0.06795468586657366,o,r(49)
choice_mid_ratio,Q_ChoiceListeningIntention,-0.3763559550525259,0.3218431395760791,-0.1415314125104055,o,r(49)
choice_tail_ratio,time_spent,0.4321462022214032,0.25531704983017217,0.16225017437387562,o,r(49)
choice_tail_ratio,Q_RecommendationSatisfaction,0.11759740507289976,0.7569028321171478,0.044425694049357055,o,r(49)
choice_tail_ratio,Q_ChoiceSatisfaction,0.36371945913588,0.3383578437453159,0.13682505525352892,o,r(49)
choice_tail_ratio,Q_PerceivedSystemEffectiveness,0.1496529790063752,0.6936325867957897,0.05651828469723615,o,r(49)
choice_tail_ratio,Q_OpennessSimilarRecommendations,0.34793702716071556,0.35973428713051325,0.1309404852161165,o,r(49)
choice_tail_ratio,Q_UseIntention,0.2865543954024498,0.45067192274590934,0.10799022351429709,o,r(49)
choice_tail_ratio,Q_ChoiceListeningIntention,0.6062988668622732,0.11051168406771154,0.22617091316316862,o,r(49)
Q_MusicalSophistication,time_spent,-0.4325700948633802,0.2548511917283003,-0.1624071998416496,o,r(49)
Q_MusicalSophistication,choice_mean_interactions,-0.5761747274519419,0.12936326199032383,-0.21520706647771531,o,r(49)
Q_MusicalSophistication,choice_median_interactions,-0.6821172792545361,0.07258758979906688,-0.2535680692404007,o,r(49)
Q_MusicalSophistication,choice_popularity_lift,0.0643933256463701,0.865401946353838,0.02433478540511938,o,r(49)
Q_MusicalSophistication,choice_jensen_shannon,-0.017535133656470046,0.9631846998389183,-0.006627584770649738,o,r(49)
Q_MusicalSophistication,choice_head_ratio,-0.8703000979417159,0.021996480776105436,-0.32016785387748825,*,r(49)
Q_MusicalSophistication,choice_mid_ratio,-0.16967511744428573,0.6551390622792975,-0.06406526051270271,o,r(49)
Q_MusicalSophistication,choice_tail_ratio,0.4423193105864018,0.24429970545431998,0.1660169390854728,o,r(49)
Q_MusicalSophistication,Q_Perceived_Popularity,-0.36907763332297383,0.331289877170188,-0.13882124152485004,o,r(49)
Q_MusicalSophistication,Q_PerceivedFairness,-0.3900378825202145,0.304565765294613,-0.14662168576753098,o,r(49)
Q_MusicalSophistication,Q_Discovery,0.758526281175032,0.04588505585734256,0.2808665106614229,*,r(49)
Q_MusicalSophistication,Q_Familiarity,0.0855916376178062,0.8217444005244763,0.03234213509353642,o,r(49)
Q_MusicalSophistication,Q_PerceivedRecommendationQuality,-0.04096801229772673,0.9141229190189865,-0.015483525035949774,o,r(49)
Q_MusicalSophistication,Q_RecommendationSatisfaction,0.21834282144964884,0.5654656016791312,0.08238543846783793,o,r(49)
Q_MusicalSophistication,Q_ChoiceSatisfaction,0.21758260413452346,0.5668199564219172,0.08209956382858694,o,r(49)
Q_MusicalSophistication,Q_PerceivedSystemEffectiveness,0.5039826930514372,0.1846371224200562,0.1887674764659962,o,r(49)
Q_MusicalSophistication,Q_OpennessSimilarRecommendations,0.23506074815363232,0.5360818201925213,0.0886694643870469,o,r(49)
Q_MusicalSophistication,Q_UseIntention,0.6811656381343614,0.07298715096449467,0.2532260355351886,o,r(49)
Q_MusicalSophistication,Q_ChoiceListeningIntention,0.19655467637031077,0.6048843632742678,0.074188250948179,o,r(49)
Q_MusicalEngagement,time_spent,-0.027636201854320187,0.9420078903991913,-0.0104452175503972,o,r(49)
Q_MusicalEngagement,choice_mean_interactions,-0.7627238815557739,0.04469732699252763,-0.28235644898288936,*,r(49)
Q_MusicalEngagement,choice_median_interactions,-1.0472365448307017,0.005861916174464053,-0.38062969471038915,**,r(49)
Q_MusicalEngagement,choice_popularity_lift,-0.37764152420737335,0.3201930190584648,-0.14200994421141924,o,r(49)
Q_MusicalEngagement,choice_jensen_shannon,-0.003082261203360901,0.9935265153517743,-0.0011649848361284082,o,r(49)
Q_MusicalEngagement,choice_head_ratio,-1.0608328892285859,0.005252756537627217,-0.3851781861261583,**,r(49)
Q_MusicalEngagement,choice_mid_ratio,0.024343436422863192,0.9489073746555199,0.009200759388288113,o,r(49)
Q_MusicalEngagement,choice_tail_ratio,0.32258269570458464,0.3958078268271957,0.12147252065097452,o,r(49)
Q_MusicalEngagement,Q_Perceived_Popularity,-0.5031769824958737,0.18533997934111487,-0.18847115754723986,o,r(49)
Q_MusicalEngagement,Q_PerceivedFairness,0.42711096170919616,0.26089608940294956,0.16038446161397726,o,r(49)
Q_MusicalEngagement,Q_Discovery,0.7331191829732704,0.053655491850843555,0.27182617206779364,o,r(49)
Q_MusicalEngagement,Q_Familiarity,0.14900035982051396,0.694901360672677,0.0562722067567457,o,r(49)
Q_MusicalEngagement,Q_PerceivedRecommendationQuality,0.6563333759961868,0.08406574270757311,0.2442839893224395,o,r(49)
Q_MusicalEngagement,Q_RecommendationSatisfaction,0.7159295731789089,0.05951337783068184,0.26568868648190264,o,r(49)
Q_MusicalEngagement,Q_ChoiceSatisfaction,0.7731145617868592,0.04186840484763877,0.2860400967333119,*,r(49)
Q_MusicalEngagement,Q_PerceivedSystemEffectiveness,0.565604165444131,0.1365407167076095,0.21134991195727715,o,r(49)
Q_MusicalEngagement,Q_OpennessSimilarRecommendations,0.4191410947552421,0.2698980175271496,0.15742960970067538,o,r(49)
Q_MusicalEngagement,Q_UseIntention,0.6795052250026966,0.07368861160848998,0.2526291426423027,o,r(49)
Q_MusicalEngagement,Q_ChoiceListeningIntention,0.712076100541591,0.06089696856556118,0.26431052880100375,o,r(49)
Q_Perceived_Popularity,time_spent,-0.6810297730982076,0.07304434260077586,-0.2531771996977275,o,r(49)
Q_Perceived_Popularity,choice_mean_interactions,1.0426369539567033,0.006081995537183108,0.37908764934853717,**,r(49)
Q_Perceived_Popularity,choice_median_interactions,0.9442642973022234,0.012959784792942635,0.3457197263721927,*,r(49)
Q_Perceived_Popularity,choice_popularity_lift,0.6621867896395944,0.08133873251786945,0.24639470829636553,o,r(49)
Q_Perceived_Popularity,choice_jensen_shannon,0.014955881412498515,0.968596844094153,0.005652746679237787,o,r(49)
Q_Perceived_Popularity,choice_head_ratio,0.8565901095390134,0.024172421816795138,0.31539038543014775,*,r(49)
Q_Perceived_Popularity,choice_mid_ratio,0.9767707913515602,0.010161077480590416,0.35682623890778986,*,r(49)
Q_Perceived_Popularity,choice_tail_ratio,-1.1971841528414566,0.0016390369527583648,-0.4299521666252482,**,r(49)
Q_Perceived_Popularity,Q_PerceivedFairness,0.17499837950219077,0.6450520314867838,0.0660708671382393,o,r(49)
Q_Perceived_Popularity,Q_Discovery,-0.2311690359553962,0.5428527832640214,-0.08720708610573513,o,r(49)
Q_Perceived_Popularity,Q_Familiarity,1.5554372309919957,4.409703872397961e-05,0.5394632602946978,***,r(49)
Q_Perceived_Popularity,Q_PerceivedRecommendationQuality,0.20913303782614587,0.581976893801161,0.07892148517209006,o,r(49)
Q_Perceived_Popularity,Q_RecommendationSatisfaction,0.35310902225537744,0.35263750067053895,0.1328696759479227,o,r(49)
Q_Perceived_Popularity,Q_ChoiceSatisfaction,0.23995564375830253,0.5276262761370609,0.09050839757836182,o,r(49)
Q_Perceived_Popularity,Q_PerceivedSystemEffectiveness,-0.08999123725651381,0.8127475936292764,-0.034003654287232565,o,r(49)
Q_Perceived_Popularity,Q_OpennessSimilarRecommendations,-0.16058406474291922,0.6725112091162896,-0.06063919865109207,o,r(49)
Q_Perceived_Popularity,Q_UseIntention,-0.3163874342879679,0.4049437840052619,-0.11915646249388011,o,r(49)
Q_Perceived_Popularity,Q_ChoiceListeningIntention,0.14660696678546645,0.6995617125958622,0.05536970526656764,o,r(49)
Q_PerceivedFairness,time_spent,0.18468935885111842,0.6268563244112859,0.06972102896650682,o,r(49)
Q_PerceivedFairness,choice_mean_interactions,-0.44232883982194643,0.24428954440803746,-0.16602046574072882,o,r(49)
Q_PerceivedFairness,choice_median_interactions,-0.44729756509318797,0.23903175014371592,-0.16785889165380655,o,r(49)
Q_PerceivedFairness,choice_popularity_lift,-0.6785679208718202,0.07408701584610775,-0.2522921311547065,o,r(49)
Q_PerceivedFairness,choice_jensen_shannon,-0.2628419002327082,0.4890145260002835,-0.09910008457863152,o,r(49)
Q_PerceivedFairness,choice_head_ratio,-0.3764055647812291,0.3217793591155708,-0.14154987983306938,o,r(49)
Q_PerceivedFairness,choice_mid_ratio,-0.24002645188823432,0.5275044615650353,-0.09053499566642725,o,r(49)
Q_PerceivedFairness,choice_tail_ratio,0.3449494477963233,0.3638743035459219,0.12982575530787416,o,r(49)
Q_PerceivedFairness,Q_Perceived_Popularity,0.17499837950219077,0.6450520314867838,0.0660708671382393,o,r(49)
Q_PerceivedFairness,Q_Discovery,1.079767342175617,0.0044997233027534896,0.3914878897376261,**,r(49)
Q_PerceivedFairness,Q_Familiarity,-0.31793608587277944,0.4026482955909984,-0.11973550819246125,o,r(49)
Q_PerceivedFairness,Q_PerceivedRecommendationQuality,1.562955314255825,4.0528025994917464e-05,0.541623715551298,***,r(49)
Q_PerceivedFairness,Q_RecommendationSatisfaction,1.5561882858633114,4.372748036395614e-05,0.5396793570149183,***,r(49)
Q_PerceivedFairness,Q_ChoiceSatisfaction,1.2398201526528378,0.0011117376832659133,0.44362423501931514,**,r(49)
Q_PerceivedFairness,Q_PerceivedSystemEffectiveness,1.2348560257654275,0.0011638214332469721,0.4420407517674488,**,r(49)
Q_PerceivedFairness,Q_OpennessSimilarRecommendations,0.9610612928456688,0.011438242795992724,0.35146843119666216,*,r(49)
Q_PerceivedFairness,Q_UseIntention,1.0029107749447743,0.008315604501521912,0.3657006426561079,**,r(49)
Q_PerceivedFairness,Q_ChoiceListeningIntention,1.1311194817686727,0.002924159855862537,0.4084532360614885,**,r(49)
Q_Discovery,time_spent,0.5878746789673219,0.12176449876952922,0.21947037021675347,o,r(49)
Q_Discovery,choice_mean_interactions,-0.7833608914273801,0.03922877373618146,-0.289666195838208,*,r(49)
Q_Discovery,choice_median_interactions,-0.7675137246328138,0.04337382581397053,-0.2840553218573687,*,r(49)
Q_Discovery,choice_popularity_lift,-0.7554826043334796,0.04676282153973619,-0.27978550433856125,*,r(49)
Q_Discovery,choice_jensen_shannon,-0.03424220982520368,0.9281796498468526,-0.012941796828792014,o,r(49)
Q_Discovery,choice_head_ratio,-0.7412349381200406,0.05106189750312408,-0.2747179999700291,o,r(49)
Q_Discovery,choice_mid_ratio,-0.18959889530076746,0.6177232363169836,-0.07156970302572356,o,r(49)
Q_Discovery,choice_tail_ratio,0.419346067439731,0.26966386443308926,0.15750563083284985,o,r(49)
Q_Discovery,Q_Perceived_Popularity,-0.2311690359553962,0.5428527832640214,-0.08720708610573513,o,r(49)
Q_Discovery,Q_PerceivedFairness,1.079767342175617,0.0044997233027534896,0.3914878897376261,**,r(49)
Q_Discovery,Q_Familiarity,-1.070893737489012,0.004839511100853328,-0.38853444169452156,**,r(49)
Q_Discovery,Q_PerceivedRecommendationQuality,2.1670128017724357,1.5618955841289582e-08,0.694667346888185,***,r(49)
Q_Discovery,Q_RecommendationSatisfaction,2.4847450354714495,1.1598110539213342e-10,0.7582835052120854,***,r(49)
Q_Discovery,Q_ChoiceSatisfaction,1.8607965770666717,1.0891384995993562e-06,0.6222669170368927,***,r(49)
Q_Discovery,Q_PerceivedSystemEffectiveness,3.1518110346957084,1.1576648882658389e-15,0.8562264502449405,***,r(49)
Q_Discovery,Q_OpennessSimilarRecommendations,1.488011488392239,9.25561062400703e-05,0.5198233681893952,***,r(49)
Q_Discovery,Q_UseIntention,2.485541341218319,1.1449993927635611e-10,0.7584284261623215,***,r(49)
Q_Discovery,Q_ChoiceListeningIntention,1.5748936576562331,3.5419505353511595e-05,0.5450421485796584,***,r(49)
Q_Familiarity,time_spent,-0.4157097057449186,0.27383862596702957,-0.15615675267478732,o,r(49)
Q_Familiarity,choice_mean_interactions,0.3341848167022292,0.37903701772556136,0.12580720270771367,o,r(49)
Q_Familiarity,choice_median_interactions,0.6510275555201142,0.08660117383253665,0.24236919788520425,o,r(49)
Q_Familiarity,choice_popularity_lift,0.09924460409144663,0.7939070350093783,0.03749774167648117,o,r(49)
Q_Familiarity,choice_jensen_shannon,0.17172036813426625,0.651255946132605,0.06483588135130339,o,r(49)
Q_Familiarity,choice_head_ratio,0.31824365092060497,0.40219333759292886,0.1198505004346397,o,r(49)
Q_Familiarity,choice_mid_ratio,0.6042699857496237,0.11170907281261215,0.22543383571753098,o,r(49)
Q_Familiarity,choice_tail_ratio,-0.6579600482741442,0.08330057620377446,-0.24487073978628066,o,r(49)
Q_Familiarity,Q_Perceived_Popularity,1.5554372309919957,4.409703872397961e-05,0.5394632602946978,***,r(49)
Q_Familiarity,Q_PerceivedFairness,-0.31793608587277944,0.4026482955909984,-0.11973550819246125,o,r(49)
Q_Familiarity,Q_Discovery,-1.070893737489012,0.004839511100853328,-0.38853444169452156,**,r(49)
Q_Familiarity,Q_PerceivedRecommendationQuality,0.043299828848655346,0.90925552812406,0.016364701177914845,o,r(49)
Q_Familiarity,Q_RecommendationSatisfaction,0.12323181301118179,0.7456489369168829,0.04655199248151638,o,r(49)
Q_Familiarity,Q_ChoiceSatisfaction,0.34457120046292805,0.3644005740481046,0.1296846054178444,o,r(49)
Q_Familiarity,Q_PerceivedSystemEffectiveness,-0.6534537929741263,0.08543421260619936,-0.2432449708541126,o,r(49)
Q_Familiarity,Q_OpennessSimilarRecommendations,-0.009848824189156233,0.9793172068598579,-0.0037224927487022,o,r(49)
Q_Familiarity,Q_UseIntention,-0.4450408351441122,0.24140979052597306,-0.16702401162574934,o,r(49)
Q_Familiarity,Q_ChoiceListeningIntention,0.34335284517633596,0.3660989521705302,0.12922992699691704,o,r(49)
Q_PerceivedRecommendationQuality,time_spent,0.5417485769533139,0.153864972470297,0.20262680066522298,o,r(49)
Q_PerceivedRecommendationQuality,choice_mean_interactions,-0.5066263113284435,0.18234483623573053,-0.1897395455188043,o,r(49)
Q_PerceivedRecommendationQuality,choice_median_interactions,-0.18231805324499933,0.6312882922628925,-0.06882799012938674,o,r(49)
Q_PerceivedRecommendationQuality,choice_popularity_lift,-0.9570740190257733,0.011784297464704033,-0.35010566241346525,*,r(49)
Q_PerceivedRecommendationQuality,choice_jensen_shannon,0.1467849207338802,0.699214813035616,0.0554368105555081,o,r(49)
Q_PerceivedRecommendationQuality,choice_head_ratio,-0.43078868229333495,0.2568129474260453,-0.16174725711250942,o,r(49)
Q_PerceivedRecommendationQuality,choice_mid_ratio,0.01575043964453904,0.966929426212226,0.005953053876397083,o,r(49)
Q_PerceivedRecommendationQuality,choice_tail_ratio,0.13002350188061707,0.7321555341325109,0.04911460053093317,o,r(49)
Q_PerceivedRecommendationQuality,Q_Perceived_Popularity,0.20913303782614587,0.581976893801161,0.07892148517209006,o,r(49)
Q_PerceivedRecommendationQuality,Q_PerceivedFairness,1.562955314255825,4.0528025994917464e-05,0.541623715551298,***,r(49)
Q_PerceivedRecommendationQuality,Q_Discovery,2.1670128017724357,1.5618955841289582e-08,0.694667346888185,***,r(49)
Q_PerceivedRecommendationQuality,Q_Familiarity,0.043299828848655346,0.90925552812406,0.016364701177914845,o,r(49)
Q_PerceivedRecommendationQuality,Q_RecommendationSatisfaction,3.739446278470176,2.267775399929642e-20,0.9100220387906054,***,r(49)
Q_PerceivedRecommendationQuality,Q_ChoiceSatisfaction,3.192835965779164,5.496807679065374e-16,0.8608489787095897,***,r(49)
Q_PerceivedRecommendationQuality,Q_PerceivedSystemEffectiveness,2.869128511750723,1.7844237089515062e-13,0.8202078378695052,***,r(49)
Q_PerceivedRecommendationQuality,Q_OpennessSimilarRecommendations,2.010458444759559,1.457716321329218e-07,0.6590119055305579,***,r(49)
Q_PerceivedRecommendationQuality,Q_UseIntention,1.9752754311979566,2.3651199075257505e-07,0.6506063215168789,***,r(49)
Q_PerceivedRecommendationQuality,Q_ChoiceListeningIntention,2.6184546857246667,1.2933735843958685e-11,0.7816274245438501,***,r(49)
Q_RecommendationSatisfaction,time_spent,0.5628666490299128,0.13844871896046013,0.2103501816907104,o,r(49)
Q_RecommendationSatisfaction,choice_mean_interactions,-0.544025894084926,0.15214226264625447,-0.20346060699585566,o,r(49)
Q_RecommendationSatisfaction,choice_median_interactions,-0.30005993432099665,0.42961784442861256,-0.11304789893291801,o,r(49)
Q_RecommendationSatisfaction,choice_popularity_lift,-0.8412108766610878,0.02683329826470643,-0.310016444582896,*,r(49)
Q_RecommendationSatisfaction,choice_jensen_shannon,-0.08525776420205723,0.8224281171820765,-0.03221604144755782,o,r(49)
Q_RecommendationSatisfaction,choice_head_ratio,-0.5086503210775367,0.18060413211166587,-0.19048359129558842,o,r(49)
Q_RecommendationSatisfaction,choice_mid_ratio,0.05768490071487387,0.8793105329295741,0.0218002521817699,o,r(49)
Q_RecommendationSatisfaction,choice_tail_ratio,0.11759740507289976,0.7569028321171478,0.044425694049357055,o,r(49)
Q_RecommendationSatisfaction,Q_ChoiceSatisfaction,3.297937520650634,8.057919447273816e-17,0.8720433653197469,***,r(49)
Q_RecommendationSatisfaction,Q_PerceivedSystemEffectiveness,2.772750464923866,9.485826066883563e-13,0.8061507833373011,***,r(49)
Q_RecommendationSatisfaction,Q_OpennessSimilarRecommendations,2.0289643784691007,1.1270595859704787e-07,0.6633754779252291,***,r(49)
Q_RecommendationSatisfaction,Q_UseIntention,2.0355324157746506,1.0282545115038108e-07,0.6649146006120599,***,r(49)
Q_RecommendationSatisfaction,Q_ChoiceListeningIntention,2.833852234085587,3.2995563023551114e-13,0.8151722962294264,***,r(49)
Q_ChoiceSatisfaction,time_spent,0.41720501048627384,0.2721166086892341,0.15671147709484995,o,r(49)
Q_ChoiceSatisfaction,choice_mean_interactions,-0.869097136676604,0.022180330660899514,-0.31974916494992894,*,r(49)
Q_ChoiceSatisfaction,choice_median_interactions,-0.5152103437413262,0.17504718164787797,-0.1928939747725923,o,r(49)
Q_ChoiceSatisfaction,choice_popularity_lift,-1.207506289748951,0.0014935845215228887,-0.43327698974417994,**,r(49)
Q_ChoiceSatisfaction,choice_jensen_shannon,-0.05734301701069242,0.8800203968219873,-0.02167107808053526,o,r(49)
Q_ChoiceSatisfaction,choice_head_ratio,-0.6875747857374384,0.07033063265657603,-0.2555286362248543,o,r(49)
Q_ChoiceSatisfaction,choice_mid_ratio,-0.14801297790547285,0.6968225800215299,-0.0558998927383726,o,r(49)
Q_ChoiceSatisfaction,choice_tail_ratio,0.36371945913588,0.3383578437453159,0.13682505525352892,o,r(49)
Q_ChoiceSatisfaction,Q_RecommendationSatisfaction,3.297937520650634,8.057919447273816e-17,0.8720433653197469,***,r(49)
Q_ChoiceSatisfaction,Q_PerceivedSystemEffectiveness,2.218051982341986,7.33791343830956e-09,0.7056737262834649,***,r(49)
Q_ChoiceSatisfaction,Q_OpennessSimilarRecommendations,2.1705705066210315,1.4824053098664158e-08,0.6954443985168167,***,r(49)
Q_ChoiceSatisfaction,Q_UseIntention,1.828755880328171,1.6479089417658595e-06,0.6140662673816091,***,r(49)
Q_ChoiceSatisfaction,Q_ChoiceListeningIntention,3.058971155752484,6.175225644727318e-15,0.8452177048357455,***,r(49)
Q_PerceivedSystemEffectiveness,time_spent,0.41439849292498787,0.27535475719161184,0.155670260902151,o,r(49)
Q_PerceivedSystemEffectiveness,choice_mean_interactions,-0.25946009000748366,0.49462254063149547,-0.09783120156413262,o,r(49)
Q_PerceivedSystemEffectiveness,choice_median_interactions,-0.051110340205110884,0.8929778361140945,-0.019316090617473688,o,r(49)
Q_PerceivedSystemEffectiveness,choice_popularity_lift,-0.5102330191592556,0.1792515919244462,-0.19106529088297539,o,r(49)
Q_PerceivedSystemEffectiveness,choice_jensen_shannon,-0.16552221387206142,0.6630524376908271,-0.06250033075868079,o,r(49)
Q_PerceivedSystemEffectiveness,choice_head_ratio,-0.3315147319893678,0.3828573591512584,-0.12480994531185097,o,r(49)
Q_PerceivedSystemEffectiveness,choice_mid_ratio,-0.04216125125839064,0.9116317599736914,-0.01593444348809461,o,r(49)
Q_PerceivedSystemEffectiveness,choice_tail_ratio,0.1496529790063752,0.6936325867957897,0.05651828469723615,o,r(49)
Q_PerceivedSystemEffectiveness,Q_RecommendationSatisfaction,2.772750464923866,9.485826066883563e-13,0.8061507833373011,***,r(49)
Q_PerceivedSystemEffectiveness,Q_ChoiceSatisfaction,2.218051982341986,7.33791343830956e-09,0.7056737262834649,***,r(49)
Q_PerceivedSystemEffectiveness,Q_OpennessSimilarRecommendations,1.3441672808599878,0.00040971206542722094,0.47638418437669894,***,r(49)
Q_PerceivedSystemEffectiveness,Q_UseIntention,3.1655661063824962,9.021243691311507e-16,0.8577925406996698,***,r(49)
Q_PerceivedSystemEffectiveness,Q_ChoiceListeningIntention,1.7366605925666456,5.241748937579537e-06,0.5898489949871458,***,r(49)
Q_OpennessSimilarRecommendations,Q_UseIntention,0.9840647519092097,0.00961253057177294,0.359307663228024,**,r(49)
Q_OpennessSimilarRecommendations,Q_ChoiceListeningIntention,2.206104598860497,8.767493812738057e-09,0.7031245410043987,***,r(49)
Q_UseIntention,Q_OpennessSimilarRecommendations,0.9840647519092097,0.00961253057177294,0.359307663228024,**,r(49)
Q_UseIntention,Q_ChoiceListeningIntention,1.6306507610980652,1.8662645743760396e-05,0.5608066481968242,***,r(49)
Q_ChoiceListeningIntention,Q_OpennessSimilarRecommendations,2.206104598860497,8.767493812738057e-09,0.7031245410043987,***,r(49)
Q_ChoiceListeningIntention,Q_UseIntention,1.6306507610980652,1.8662645743760396e-05,0.5608066481968242,***,r(49)
