strict digraph "" {
	subgraph cluster_OSA {
		graph [color=purple,
			label=OSA
		];
		Condition	[shape=octagon];
		"R: Mean POP"	[shape=octagon];
		Condition -> "R: Mean POP"	[label="F(2,49) = 170.05
p < .001
η²: 0.77
***"];
		"R: Med POP"	[shape=octagon];
		Condition -> "R: Med POP"	[label="F(2,49) = 84.33
p < .001
η²: 0.71
***"];
		"R: Pop Lift"	[shape=octagon];
		Condition -> "R: Pop Lift"	[label="F(2,49) = 112.83
p < .001
η²: 0.70
***"];
		"R: UPD"	[shape=octagon];
		Condition -> "R: UPD"	[label="F(2,49) = 109.03
p < .001
η²: 0.85
***"];
		"R: Head Ratio"	[shape=octagon];
		Condition -> "R: Head Ratio"	[label="F(2,49) = 32.98
p < .001
η²: 0.51
***"];
		"R: Mid Ratio"	[shape=octagon];
		Condition -> "R: Mid Ratio"	[label="F(2,49) = 737.52
p < .001
η²: 0.95
***"];
		"R: Tail Ratio"	[shape=octagon];
		Condition -> "R: Tail Ratio"	[label="F(2,49) = 755.30
p < .001
η²: 0.96
***"];
		"Trial Nmbr"	[shape=octagon];
	}
	subgraph cluster_SSA {
		graph [color=darkgreen,
			label=SSA
		];
		"Q: Perc. Popularity"	[shape=box];
		"Q: Perc. Fairness"	[shape=box];
		"Q: Discovery"	[shape=box];
		"Q: Familiarity"	[shape=box];
		"Q: Perc. Rec. Quality"	[shape=box];
	}
	subgraph cluster_INT {
		graph [color=blue,
			label=INT
		];
		"Time Spent"	[shape=ellipse];
		"C: Mean POP"	[shape=ellipse];
		"C: Med POP"	[shape=ellipse];
		"C: Pop Lift"	[shape=ellipse];
		"C: UPD"	[shape=ellipse];
		"C: Head Ratio"	[shape=ellipse];
		"C: Mid Ratio"	[shape=ellipse];
		"C: Tail Ratio"	[shape=ellipse];
	}
	subgraph cluster_PC {
		graph [color=red,
			label=PC
		];
		"P: Mean POP"	[shape=ellipse];
		"P: Med POP"	[shape=ellipse];
		"P: Profile Size"	[shape=ellipse];
		"P: Head Ratio"	[shape=ellipse];
		"P: Mid Ratio"	[shape=ellipse];
		"P: Tail Ratio"	[shape=ellipse];
		Age	[shape=box];
		Gender	[shape=box];
		"Q: Musical Soph."	[shape=box];
		"Q: Musical Eng."	[shape=box];
	}
	subgraph cluster_EXP {
		graph [color=orange,
			label=EXP
		];
		"Q: Rec. Satisfaction"	[shape=box];
		"Q: Choice Satisfaction"	[shape=box];
		"Q: Perc. System Effectiveness"	[shape=box];
	}
	subgraph cluster_BI {
		graph [color=pink,
			label=BI
		];
		"Q: Openness to Sim. Rec."	[shape=box];
		"Q: Use Intention"	[shape=box];
		"Q: Choice Listening Intention"	[shape=box];
	}
	Condition -> "Time Spent"	[label="F(2,49) = 3.85
p = .032
η²: 0.13
*"];
	Condition -> "Q: Perc. Popularity"	[label="F(2,49) = 8.79
p < .001
η²: 0.16
***"];
	"Trial Nmbr" -> "Time Spent"	[label="F(2,49) = 7.05
p = .003
η²: 0.20
**"];
	"Trial Nmbr" -> "C: Mean POP"	[label="F(2,49) = 5.57
p = .008
η²: 0.14
**"];
	"Trial Nmbr" -> "C: Med POP"	[label="F(2,49) = 6.63
p = .004
η²: 0.19
**"];
	"Trial Nmbr" -> "C: Pop Lift"	[label="F(2,49) = 5.37
p = .010
η²: 0.14
**"];
	"Trial Nmbr" -> "C: Head Ratio"	[label="F(2,49) = 4.61
p = .017
η²: 0.11
*"];
	"Trial Nmbr" -> "C: Mid Ratio"	[label="F(2,49) = 4.46
p = .020
η²: 0.20
*"];
	"Trial Nmbr" -> "C: Tail Ratio"	[label="F(2,49) = 5.15
p = .012
η²: 0.22
*"];
	"Trial Nmbr" -> "Q: Discovery"	[label="F(2,49) = 3.82
p = .032
η²: 0.06
*"];
	"Trial Nmbr" -> "Q: Perc. Rec. Quality"	[label="F(2,49) = 4.45
p = .020
η²: 0.08
*"];
	"R: Mean POP" -> "Q: Perc. Popularity"	[label="r(49) = 0.41
p = .003
**"];
	"R: Med POP" -> "Q: Perc. Popularity"	[label="r(49) = 0.43
p = .002
**"];
	"R: Med POP" -> "Q: Familiarity"	[label="r(49) = 0.29
p = .041
*"];
	"R: Pop Lift" -> "Q: Perc. Rec. Quality"	[label="r(49) = -0.28
p = .049
*"];
	"R: Pop Lift" -> "Q: Choice Satisfaction"	[label="r(49) = -0.30
p = .035
*"];
	"R: Pop Lift" -> "Q: Choice Listening Intention"	[label="r(49) = -0.38
p = .006
**"];
	"R: Mid Ratio" -> "Q: Perc. Popularity"	[label="r(49) = 0.39
p = .005
**"];
	"R: Mid Ratio" -> "Q: Familiarity"	[label="r(49) = 0.29
p = .037
*"];
	"R: Tail Ratio" -> "Q: Perc. Popularity"	[label="r(49) = -0.39
p = .005
**"];
	"R: Tail Ratio" -> "Q: Familiarity"	[label="r(49) = -0.28
p = .043
*"];
}
