algorithm,user_id,mean_interactions,median_interactions,popularity_lift,jensen_shannon,head_ratio,mid_ratio,tail_ratio
base,6XNM0KB28G,659.16,645.0,-0.05785675281311268,0.15187199805623364,0.04,0.96,0.0
cp,6XNM0KB28G,642.24,579.0,-0.08204065921277603,0.005754871796634059,0.12,0.72,0.16
fair,6XNM0KB28G,226.52,53.0,-0.676232950493395,0.18646703371307144,0.0,0.32,0.68
